\relax 
\providecommand{\transparent@use}[1]{}
\citation{rixen_2004}
\citation{craig_bampton_1968}
\citation{rixen_2004}
\citation{craig_bampton_1968}
\@writefile{toc}{\contentsline {chapter}{\numberline {1}Craig Bampton method}{2}\protected@file@percent }
\@writefile{lof}{\addvspace {10\p@ }}
\@writefile{lot}{\addvspace {10\p@ }}
\newlabel{chap_craig_bampton_method}{{1}{2}}
\newlabel{eq_1}{{1.1}{2}}
\newlabel{eq_2}{{1.2}{2}}
\newlabel{eq_3}{{1.3}{2}}
\newlabel{eq_12}{{1.4}{2}}
\newlabel{eq_13}{{1.5}{2}}
\newlabel{eq_14}{{1.6}{2}}
\citation{craig_bampton_1968}
\@writefile{toc}{\contentsline {section}{\numberline {1.1}Static constraint mode shapes}{3}\protected@file@percent }
\newlabel{constraint_modes}{{1.1}{3}}
\newlabel{eq_4}{{1.7}{3}}
\newlabel{eq_5}{{1.8}{3}}
\newlabel{eq_7}{{1.9}{3}}
\newlabel{eq_8}{{1.10}{3}}
\@writefile{toc}{\contentsline {section}{\numberline {1.2}Dynamic normal mode shapes}{3}\protected@file@percent }
\newlabel{normal_modes}{{1.2}{3}}
\newlabel{eq_9}{{1.11}{3}}
\newlabel{eq_10}{{1.12}{3}}
\newlabel{eq_11}{{1.13}{3}}
\@writefile{toc}{\contentsline {section}{\numberline {1.3}Modal reduction}{3}\protected@file@percent }
\newlabel{eq_15}{{1.14}{3}}
\newlabel{eq_16}{{1.15}{3}}
\@writefile{lof}{\contentsline {figure}{\numberline {1.1}{\ignorespaces Displacement and internal forces compatibility\relax }}{4}\protected@file@percent }
\providecommand*\caption@xref[2]{\@setref\relax\@undefined{#1}}
\newlabel{fig_compatibility}{{1.1}{4}}
\@writefile{toc}{\contentsline {section}{\numberline {1.4}Assembly}{4}\protected@file@percent }
\newlabel{eq_63}{{1.16}{4}}
\newlabel{eq_62}{{1.17}{4}}
\newlabel{eq_17}{{1.18}{4}}
\newlabel{eq_18}{{1.19}{4}}
\newlabel{eq_19}{{1.20}{4}}
\newlabel{eq_20}{{1.21}{4}}
\newlabel{fig_primal_assembly_matrices}{{1.2a}{5}}
\newlabel{sub@fig_primal_assembly_matrices}{{a}{5}}
\newlabel{fig_dual_assembly_matrices}{{1.2b}{5}}
\newlabel{sub@fig_dual_assembly_matrices}{{b}{5}}
\@writefile{lof}{\contentsline {figure}{\numberline {1.2}{\ignorespaces Structure assembly methods\relax }}{5}\protected@file@percent }
\newlabel{fig_structure_assembly_matrices}{{1.2}{5}}
\newlabel{eq_21}{{1.22}{5}}
\newlabel{eq_22}{{1.23}{5}}
\newlabel{eq_23}{{1.24}{5}}
\@writefile{toc}{\contentsline {section}{\numberline {1.5}Solution projection}{5}\protected@file@percent }
\newlabel{eq_24}{{1.25}{5}}
\@writefile{toc}{\contentsline {section}{\numberline {1.6}Rigid connector}{5}\protected@file@percent }
\newlabel{sec_rigid_connector}{{1.6}{5}}
\newlabel{eq_35}{{1.26}{5}}
\newlabel{eq_36}{{1.27}{5}}
\citation{comsol_2019}
\citation{comsol_2019}
\@writefile{lof}{\contentsline {figure}{\numberline {1.3}{\ignorespaces Rigid connector kinematic description\relax }}{6}\protected@file@percent }
\newlabel{fig_rigid_connector_01}{{1.3}{6}}
\newlabel{eq_37}{{1.28}{6}}
\newlabel{eq_70}{{1.29}{6}}
\newlabel{eq_39}{{1.30}{6}}
\newlabel{eq_38}{{1.31}{6}}
\newlabel{eq_64}{{1.33}{6}}
\newlabel{eq_71}{{1.34}{6}}
\newlabel{eq_65}{{1.35}{6}}
\newlabel{eq_67}{{1.36}{7}}
\newlabel{eq_68}{{1.37}{7}}
\newlabel{eq_69}{{1.38}{7}}
\newlabel{eq_43}{{1.41}{7}}
\newlabel{eq_40}{{1.42}{7}}
\newlabel{eq_41}{{1.43}{7}}
\newlabel{eq_42}{{1.44}{7}}
\@writefile{toc}{\contentsline {section}{\numberline {1.7}Numerical example}{7}\protected@file@percent }
\newlabel{numerical_example}{{1.7}{7}}
\@writefile{lof}{\contentsline {figure}{\numberline {1.4}{\ignorespaces Numerical example: DTU 10MW WT tower and nacelle.\relax }}{8}\protected@file@percent }
\newlabel{fig_DTU10MW_tower_towertop}{{1.4}{8}}
\@writefile{lot}{\contentsline {table}{\numberline {1.1}{\ignorespaces Tower cross section dimensions and wall thickness distribution\relax }}{8}\protected@file@percent }
\newlabel{tab_tower}{{1.1}{8}}
\@writefile{lot}{\contentsline {table}{\numberline {1.2}{\ignorespaces Tower-top properties\relax }}{9}\protected@file@percent }
\newlabel{tab_tower_top}{{1.2}{9}}
\@writefile{lof}{\contentsline {figure}{\numberline {1.5}{\ignorespaces COMSOL mesh\relax }}{9}\protected@file@percent }
\newlabel{fig_comsol_mesh}{{1.5}{9}}
\newlabel{eq_25}{{1.45}{9}}
\newlabel{eq_26}{{1.46}{9}}
\@writefile{lot}{\contentsline {table}{\numberline {1.3}{\ignorespaces Natural frequencies obtained using model 2\relax }}{10}\protected@file@percent }
\newlabel{tab_ex_2}{{1.3}{10}}
\newlabel{fig_mode_1}{{1.6a}{10}}
\newlabel{sub@fig_mode_1}{{a}{10}}
\newlabel{fig_mode_2}{{1.6b}{10}}
\newlabel{sub@fig_mode_2}{{b}{10}}
\newlabel{fig_mode_3}{{1.6c}{11}}
\newlabel{sub@fig_mode_3}{{c}{11}}
\newlabel{fig_mode_4}{{1.6d}{11}}
\newlabel{sub@fig_mode_4}{{d}{11}}
\newlabel{fig_mode_5}{{1.6e}{11}}
\newlabel{sub@fig_mode_5}{{e}{11}}
\newlabel{fig_mode_6}{{1.6f}{11}}
\newlabel{sub@fig_mode_6}{{f}{11}}
\newlabel{fig_mode_7}{{1.6g}{11}}
\newlabel{sub@fig_mode_7}{{g}{11}}
\newlabel{fig_mode_8}{{1.6h}{11}}
\newlabel{sub@fig_mode_8}{{h}{11}}
\newlabel{fig_mode_9}{{1.6i}{12}}
\newlabel{sub@fig_mode_9}{{i}{12}}
\newlabel{fig_mode_10}{{1.6j}{12}}
\newlabel{sub@fig_mode_10}{{j}{12}}
\newlabel{fig_mode_11}{{1.6k}{12}}
\newlabel{sub@fig_mode_11}{{k}{12}}
\newlabel{fig_mode_12}{{1.6l}{12}}
\newlabel{sub@fig_mode_12}{{l}{12}}
\newlabel{fig_mode_13}{{1.6m}{12}}
\newlabel{sub@fig_mode_13}{{m}{12}}
\newlabel{fig_mode_14}{{1.6n}{12}}
\newlabel{sub@fig_mode_14}{{n}{12}}
\newlabel{fig_mode_15}{{1.6o}{13}}
\newlabel{sub@fig_mode_15}{{o}{13}}
\newlabel{fig_mode_16}{{1.6p}{13}}
\newlabel{sub@fig_mode_16}{{p}{13}}
\newlabel{fig_mode_17}{{1.6q}{13}}
\newlabel{sub@fig_mode_17}{{q}{13}}
\newlabel{fig_18}{{1.6r}{13}}
\newlabel{sub@fig_18}{{r}{13}}
\newlabel{fig_19}{{1.6s}{13}}
\newlabel{sub@fig_19}{{s}{13}}
\newlabel{fig_mode_20}{{1.6t}{13}}
\newlabel{sub@fig_mode_20}{{t}{13}}
\@writefile{lof}{\contentsline {figure}{\numberline {1.6}{\ignorespaces Mode shapes\relax }}{13}\protected@file@percent }
\newlabel{fig_12345}{{1.6}{13}}
\bibstyle{vancouver}
\bibdata{./bib/literature}
\bibcite{rixen_2004}{1}
\bibcite{craig_bampton_1968}{2}
\bibcite{comsol_2019}{3}
\bibcite{onate_2013}{4}
\bibcite{liu_2003}{5}
\@writefile{toc}{\contentsline {chapter}{\numberline {A}Appendices}{ii}\protected@file@percent }
\@writefile{lof}{\addvspace {10\p@ }}
\@writefile{lot}{\addvspace {10\p@ }}
\citation{onate_2013}
\citation{liu_2003}
\@writefile{toc}{\contentsline {section}{\numberline {A.1}Surface curvilinear coordinates}{iii}\protected@file@percent }
\newlabel{sec_curvilinear_coordinates}{{A.1}{iii}}
\newlabel{eq_a0}{{A.1}{iii}}
\newlabel{eq_a6}{{A.2}{iii}}
\newlabel{eq_a1}{{A.3}{iii}}
\newlabel{eq_a2}{{A.4}{iii}}
\newlabel{eq_a3}{{A.5}{iii}}
\newlabel{eq_a4}{{A.6}{iii}}
\newlabel{fig_curvilinear_coordinates_a}{{A.1a}{iii}}
\newlabel{sub@fig_curvilinear_coordinates_a}{{a}{iii}}
\newlabel{fig_curvilinear_coordinates_b}{{A.1b}{iii}}
\newlabel{sub@fig_curvilinear_coordinates_b}{{b}{iii}}
\@writefile{lof}{\contentsline {figure}{\numberline {A.1}{\ignorespaces Some caption\relax }}{iii}\protected@file@percent }
\newlabel{fig_curvilinear_coordinates}{{A.1}{iii}}
\newlabel{eq_a12}{{A.7}{iv}}
\newlabel{eq_a9}{{A.8}{iv}}
\newlabel{eq_a10}{{A.9}{iv}}
\newlabel{eq_a11}{{A.10}{iv}}
\newlabel{eq_a12}{{A.11}{iv}}
\newlabel{eq_a13}{{A.12}{iv}}
\newlabel{eq_a14}{{A.13}{iv}}
\newlabel{eq_a11}{{A.14}{iv}}
\@writefile{toc}{\contentsline {section}{\numberline {A.2}3D beam element}{v}\protected@file@percent }
\newlabel{sec_3D_beam_element}{{A.2}{v}}
\@writefile{lof}{\contentsline {figure}{\numberline {A.2}{\ignorespaces Figure caption\relax }}{v}\protected@file@percent }
\newlabel{fig_figure_name}{{A.2}{v}}
\newlabel{eq_44}{{A.15}{v}}
\newlabel{eq_45}{{A.16}{v}}
\newlabel{eq_46}{{A.17}{v}}
\newlabel{eq_47}{{A.18}{v}}
\newlabel{eq_48}{{A.19}{v}}
\newlabel{eq_49}{{A.20}{v}}
\newlabel{eq_50}{{A.22}{v}}
\newlabel{eq_51}{{A.23}{v}}
\newlabel{eq_52}{{A.24}{v}}
\newlabel{eq_53}{{A.25}{v}}
\newlabel{eq_54}{{A.26}{vi}}
\newlabel{eq_55}{{A.27}{vi}}
\newlabel{eq_56}{{A.28}{vi}}
\newlabel{eq_57}{{A.29}{vi}}
\newlabel{eq_58}{{A.30}{vi}}
\newlabel{eq_60}{{A.31}{vi}}
\newlabel{eq_61}{{A.32}{vi}}
