\relax 
\citation{rixen_2004}
\citation{craig_bampton_1968}
\citation{rixen_2004}
\citation{craig_bampton_1968}
\@writefile{toc}{\contentsline {chapter}{\numberline {1}Craig Bampton method}{3}\protected@file@percent }
\@writefile{lof}{\addvspace {10\p@ }}
\@writefile{lot}{\addvspace {10\p@ }}
\newlabel{chap_craig_bampton_method}{{1}{3}}
\newlabel{eq_1}{{1.1}{3}}
\newlabel{eq_2}{{1.2}{3}}
\newlabel{eq_3}{{1.3}{3}}
\newlabel{eq_12}{{1.4}{3}}
\@writefile{lof}{\contentsline {figure}{\numberline {1.1}{\ignorespaces Discretized substructured domain\relax }}{3}\protected@file@percent }
\providecommand*\caption@xref[2]{\@setref\relax\@undefined{#1}}
\newlabel{fig_discretized_substructured_domain}{{1.1}{3}}
\citation{craig_bampton_1968}
\newlabel{eq_13}{{1.5}{4}}
\newlabel{eq_14}{{1.6}{4}}
\@writefile{toc}{\contentsline {section}{\numberline {1.1}Static constraint mode shapes}{4}\protected@file@percent }
\newlabel{constraint_modes}{{1.1}{4}}
\newlabel{eq_4}{{1.7}{4}}
\newlabel{eq_5}{{1.8}{4}}
\newlabel{eq_7}{{1.9}{4}}
\newlabel{eq_8}{{1.10}{4}}
\@writefile{toc}{\contentsline {section}{\numberline {1.2}Dynamic normal mode shapes}{4}\protected@file@percent }
\newlabel{normal_modes}{{1.2}{4}}
\newlabel{eq_9}{{1.11}{4}}
\newlabel{eq_10}{{1.12}{4}}
\newlabel{eq_11}{{1.13}{4}}
\@writefile{lof}{\contentsline {figure}{\numberline {1.2}{\ignorespaces Displacement and internal forces compatibility\relax }}{5}\protected@file@percent }
\newlabel{fig_compatibility}{{1.2}{5}}
\@writefile{toc}{\contentsline {section}{\numberline {1.3}Modal reduction}{5}\protected@file@percent }
\newlabel{eq_15}{{1.14}{5}}
\newlabel{eq_16}{{1.15}{5}}
\@writefile{toc}{\contentsline {section}{\numberline {1.4}Assembly}{5}\protected@file@percent }
\newlabel{eq_17}{{1.18}{5}}
\newlabel{eq_18}{{1.19}{5}}
\newlabel{fig_primal_assembly_matrices}{{1.3a}{6}}
\newlabel{sub@fig_primal_assembly_matrices}{{a}{6}}
\newlabel{fig_dual_assembly_matrices}{{1.3b}{6}}
\newlabel{sub@fig_dual_assembly_matrices}{{b}{6}}
\@writefile{lof}{\contentsline {figure}{\numberline {1.3}{\ignorespaces Structure assembly methods\relax }}{6}\protected@file@percent }
\newlabel{fig_structure_assembly_matrices}{{1.3}{6}}
\newlabel{eq_19}{{1.20}{6}}
\newlabel{eq_20}{{1.21}{6}}
\newlabel{eq_21}{{1.22}{6}}
\newlabel{eq_22}{{1.23}{6}}
\newlabel{eq_23}{{1.24}{6}}
\@writefile{toc}{\contentsline {section}{\numberline {1.5}Solution projection}{6}\protected@file@percent }
\newlabel{eq_24}{{1.25}{6}}
\@writefile{toc}{\contentsline {section}{\numberline {1.6}Rigid connector}{7}\protected@file@percent }
\newlabel{sec_rigid_connector}{{1.6}{7}}
\@writefile{lof}{\contentsline {figure}{\numberline {1.4}{\ignorespaces Rigid connector kinematic description\relax }}{7}\protected@file@percent }
\newlabel{fig_rigid_connector_01}{{1.4}{7}}
\newlabel{eq_35}{{1.26}{7}}
\newlabel{eq_36}{{1.27}{7}}
\newlabel{eq_37}{{1.28}{7}}
\newlabel{eq_38}{{1.29}{7}}
\newlabel{eq_39}{{1.30}{7}}
\newlabel{eq_43}{{1.31}{7}}
\newlabel{eq_40}{{1.32}{7}}
\newlabel{eq_41}{{1.33}{8}}
\newlabel{eq_42}{{1.34}{8}}
\@writefile{lot}{\contentsline {table}{\numberline {1.1}{\ignorespaces caption\relax }}{8}\protected@file@percent }
\newlabel{tab_ap_rigid_connector}{{1.1}{8}}
\@writefile{toc}{\contentsline {section}{\numberline {1.7}Numerical example}{8}\protected@file@percent }
\newlabel{numerical_example}{{1.7}{8}}
\@writefile{lof}{\contentsline {figure}{\numberline {1.5}{\ignorespaces Numerical example: DTU 10MW WT tower and nacelle.\relax }}{9}\protected@file@percent }
\newlabel{fig_DTU10MW_tower_towertop}{{1.5}{9}}
\@writefile{lot}{\contentsline {table}{\numberline {1.2}{\ignorespaces Tower cross section dimensions and wall thickness distribution\relax }}{9}\protected@file@percent }
\newlabel{tab_tower}{{1.2}{9}}
\newlabel{eq_25}{{1.35}{9}}
\newlabel{eq_26}{{1.36}{9}}
\@writefile{lot}{\contentsline {table}{\numberline {1.3}{\ignorespaces Tower-top properties\relax }}{10}\protected@file@percent }
\newlabel{tab_tower_top}{{1.3}{10}}
\@writefile{toc}{\contentsline {subsection}{\numberline {1.7.1}Model 1}{10}\protected@file@percent }
\newlabel{model_1}{{1.7.1}{10}}
\@writefile{lot}{\contentsline {table}{\numberline {1.4}{\ignorespaces Natural frequencies obtained using model 1\relax }}{10}\protected@file@percent }
\newlabel{tab_ex_1}{{1.4}{10}}
\@writefile{lof}{\contentsline {figure}{\numberline {1.6}{\ignorespaces Error variation as a function of the internal dynamic modal basis subset size\relax }}{11}\protected@file@percent }
\newlabel{fig_error_variation}{{1.6}{11}}
\@writefile{toc}{\contentsline {subsection}{\numberline {1.7.2}Model 2}{11}\protected@file@percent }
\newlabel{model_2}{{1.7.2}{11}}
\@writefile{lof}{\contentsline {figure}{\numberline {1.7}{\ignorespaces COMSOL mesh\relax }}{11}\protected@file@percent }
\newlabel{fig_comsol_mesh}{{1.7}{11}}
\@writefile{lof}{\contentsline {figure}{\numberline {1.8}{\ignorespaces Rigid connection\relax }}{12}\protected@file@percent }
\newlabel{fig_rigid_connector_illustration}{{1.8}{12}}
\@writefile{lot}{\contentsline {table}{\numberline {1.5}{\ignorespaces Natural frequencies obtained using model 2\relax }}{12}\protected@file@percent }
\newlabel{tab_ex_2}{{1.5}{12}}
\newlabel{fig_1}{{1.9a}{13}}
\newlabel{sub@fig_1}{{a}{13}}
\newlabel{fig_2}{{1.9b}{13}}
\newlabel{sub@fig_2}{{b}{13}}
\newlabel{fig_1}{{1.9c}{13}}
\newlabel{sub@fig_1}{{c}{13}}
\newlabel{fig_}{{1.9d}{13}}
\newlabel{sub@fig_}{{d}{13}}
\newlabel{fig_1}{{1.9e}{13}}
\newlabel{sub@fig_1}{{e}{13}}
\newlabel{fig_}{{1.9f}{13}}
\newlabel{sub@fig_}{{f}{13}}
\@writefile{lof}{\contentsline {figure}{\numberline {1.9}{\ignorespaces caption 12\relax }}{13}\protected@file@percent }
\newlabel{fig_12345}{{1.9}{13}}
\newlabel{fig_1}{{1.9g}{14}}
\newlabel{sub@fig_1}{{g}{14}}
\newlabel{fig_}{{1.9h}{14}}
\newlabel{sub@fig_}{{h}{14}}
\@writefile{lof}{\contentsline {figure}{\numberline {1.9}{\ignorespaces caption 12\relax }}{14}\protected@file@percent }
\newlabel{fig_12345}{{1.9}{14}}
\newlabel{fig_1}{{1.9i}{14}}
\newlabel{sub@fig_1}{{i}{14}}
\newlabel{fig_}{{1.9j}{14}}
\newlabel{sub@fig_}{{j}{14}}
\@writefile{lof}{\contentsline {figure}{\numberline {1.9}{\ignorespaces caption 12\relax }}{14}\protected@file@percent }
\newlabel{fig_12345}{{1.9}{14}}
\newlabel{fig_1}{{1.9k}{15}}
\newlabel{sub@fig_1}{{k}{15}}
\newlabel{fig_}{{1.9l}{15}}
\newlabel{sub@fig_}{{l}{15}}
\@writefile{lof}{\contentsline {figure}{\numberline {1.9}{\ignorespaces caption 12\relax }}{15}\protected@file@percent }
\newlabel{fig_12345}{{1.9}{15}}
\newlabel{fig_1}{{1.9m}{15}}
\newlabel{sub@fig_1}{{m}{15}}
\newlabel{fig_}{{1.9n}{15}}
\newlabel{sub@fig_}{{n}{15}}
\@writefile{lof}{\contentsline {figure}{\numberline {1.9}{\ignorespaces caption 12\relax }}{15}\protected@file@percent }
\newlabel{fig_12345}{{1.9}{15}}
\newlabel{fig_1}{{1.9o}{16}}
\newlabel{sub@fig_1}{{o}{16}}
\newlabel{fig_}{{1.9p}{16}}
\newlabel{sub@fig_}{{p}{16}}
\@writefile{lof}{\contentsline {figure}{\numberline {1.9}{\ignorespaces caption 12\relax }}{16}\protected@file@percent }
\newlabel{fig_12345}{{1.9}{16}}
\newlabel{fig_1}{{1.9q}{16}}
\newlabel{sub@fig_1}{{q}{16}}
\newlabel{fig_}{{1.9r}{16}}
\newlabel{sub@fig_}{{r}{16}}
\@writefile{lof}{\contentsline {figure}{\numberline {1.9}{\ignorespaces caption 12\relax }}{16}\protected@file@percent }
\newlabel{fig_12345}{{1.9}{16}}
\newlabel{fig_1}{{1.9s}{17}}
\newlabel{sub@fig_1}{{s}{17}}
\newlabel{fig_}{{1.9t}{17}}
\newlabel{sub@fig_}{{t}{17}}
\@writefile{lof}{\contentsline {figure}{\numberline {1.9}{\ignorespaces caption 12\relax }}{17}\protected@file@percent }
\newlabel{fig_12345}{{1.9}{17}}
\bibstyle{vancouver}
\bibdata{./bib/sample}
\bibcite{rixen_2004}{1}
\bibcite{craig_bampton_1968}{2}
\@writefile{toc}{\contentsline {chapter}{\numberline {A} }{i}\protected@file@percent }
\@writefile{lof}{\addvspace {10\p@ }}
\@writefile{lot}{\addvspace {10\p@ }}
\@writefile{toc}{\contentsline {section}{\numberline {A.1}3D beam element}{i}\protected@file@percent }
\newlabel{sec_3D_beam_element}{{A.1}{i}}
\@writefile{lof}{\contentsline {figure}{\numberline {A.1}{\ignorespaces Figure caption\relax }}{i}\protected@file@percent }
\newlabel{fig_figure_name}{{A.1}{i}}
\newlabel{eq_44}{{A.1}{i}}
\newlabel{eq_45}{{A.2}{i}}
\newlabel{eq_46}{{A.3}{i}}
\newlabel{eq_47}{{A.4}{i}}
\newlabel{eq_48}{{A.5}{i}}
\newlabel{eq_49}{{A.6}{i}}
\newlabel{eq_50}{{A.8}{i}}
\newlabel{eq_51}{{A.9}{ii}}
\newlabel{eq_52}{{A.10}{ii}}
\newlabel{eq_53}{{A.11}{ii}}
\newlabel{eq_54}{{A.12}{ii}}
\newlabel{eq_55}{{A.13}{ii}}
\newlabel{eq_56}{{A.14}{ii}}
\newlabel{eq_57}{{A.15}{ii}}
\newlabel{eq_58}{{A.16}{ii}}
\newlabel{eq_60}{{A.17}{ii}}
\newlabel{eq_61}{{A.18}{ii}}
\@writefile{toc}{\contentsline {section}{\numberline {A.2}2D beam element}{iv}\protected@file@percent }
\newlabel{sec_2D_beam_element}{{A.2}{iv}}
\@writefile{lof}{\contentsline {figure}{\numberline {A.2}{\ignorespaces Figure caption\relax }}{iv}\protected@file@percent }
\newlabel{fig_figure_name}{{A.2}{iv}}
