% Model:              shell_tower_with_tower_top_nacelle.mph
% Version:            COMSOL 5.5.0.359
% Date:               Dec 14 2020, 14:06
% Table:              Eigenfrequencies (Study 2) - 
% Eigenfrequency (Hz)    Angular frequency (rad/s)Damping ratio (1)        Quality factor (1)
0.7748979233131574       4.868827246325204        0                        Inf
0.7748979239055273       4.868827250047174        0                        Inf
1.869122643736219        11.744043932440075       0                        Inf
1.869122644013941        11.744043934185054       0                        Inf
3.1346755254192127       19.695747204089447       0                        Inf
3.134675526623101        19.6957472116537         0                        Inf
3.469409233335589        21.798941119487363       0                        Inf
3.46940924045508         21.798941164220448       0                        Inf
4.4638754285864914       28.047356505974623       0                        Inf
4.463875428962621        28.047356508337913       0                        Inf
4.667938647694699        29.32952352601108        0                        Inf
4.66793864809319         29.329523528514873       0                        Inf
5.1466113520768335       32.33711282913283        0                        Inf
5.146611352642319        32.337112832685875       0                        Inf
5.437952942223236        34.16766602771104        0                        Inf
5.437952944672029        34.167666043097256       0                        Inf
6.106222144886512        38.36652526312555        0                        Inf
6.106222145699678        38.366525268234824       0                        Inf
7.5848694552666265       47.6571403182065         0                        Inf
7.584869456440874        47.657140325584514       0                        Inf
