<?xml version="1.0" encoding="UTF-8" standalone="no"?>
<svg xmlns="http://www.w3.org/2000/svg" xmlns:xlink="http://www.w3.org/1999/xlink" width="297.000mm" height="210.000mm" viewBox="0.000000 0.000000 297.000000 210.000000" stroke-linejoin="round" stroke-linecap="round" fill="none" fill-rule="evenodd"><desc>Composer Export</desc><script type="text/ecmascript"><![CDATA[
if(typeof(top) != "undefined")
{
	top.ShowPaper = ShowPaper;
}
function ShowHotSpot(evt,hotspotid)
{
	var svgDocument = evt.target.ownerDocument;
	var strId = "hotspot."+hotspotid;
	var hotspot = svgDocument.getElementById(strId);
	if(hotspot)
		hotspot.setAttribute("opacity",".5");
}
function HideHotSpot(evt,hotspotid)
{
	var svgDocument = evt.target.ownerDocument;
	var strId = "hotspot."+hotspotid;
	var hotspot = svgDocument.getElementById(strId);
	if(hotspot)
		hotspot.setAttribute("opacity","0");

	var toolTip = svgDocument.getElementById('ToolTip');
	if(toolTip)
		toolTip.setAttribute("visibility","hidden");
}
function ShowToolTip(evt,hotspotid,strTooltip)
{
	if(strTooltip=="")
	return;

	// change text
	var svgDocument = evt.target.ownerDocument;
	var tiptext = svgDocument.getElementById('ToolTipText');
	if( !tiptext )
	return;
	tiptext.firstChild.nodeValue = " " + strTooltip + "  " ;

	// show tooltip before, else some refresh issue

	var toolTip = svgDocument.getElementById('ToolTip');
	if(!toolTip)
	return;

	toolTip.setAttribute("visibility","visible");
	toolTip.setAttribute("opacity",".95");

	// move tooltip
	// get viewbox

	var root = svgDocument.documentElement;
	var vbox = (root.getAttribute("viewBox")).split(' ');
	var x0 = parseFloat(vbox[0]);
	var y0 = parseFloat(vbox[1]);
	var vboxW = parseFloat(vbox[2]);
	var vboxH = parseFloat(vbox[3]);

	// get default width of svg

	var strW = root.getAttribute("width");
	var svgW = parseFloat(strW);
	if(strW.indexOf('mm') != -1)
	svgW *= 3.779;

	var strH = root.getAttribute("height");
	var svgH = parseFloat(strH);
	if(strH.indexOf('mm') != -1)
	svgH *= 3.779;  	// 96 dpi  -> 96/25.4 = 3.779

	// update the viewbox / width / height if svg is embedded in html with zoom fit all
	var realx0 = x0;
	var realy0 = y0;
	var realvboxW = vboxW;
	var realvboxH = vboxH;
	var realsvgW = svgW;
	var realsvgH = svgH;

	if ((typeof(top) == "undefined") || (typeof(top.svgctl1) != "undefined")) // embedded in html
	{
		// get window size in pxl

		svgW = window.innerWidth;
		svgH = window.innerHeight;

		// calculate real viewbox

		realsvgW = svgW;
		realsvgH = svgH;
		if((svgW / svgH) > (vboxW / vboxH))
		{
			realvboxW = (vboxH * svgW) / svgH;
			realvboxH = vboxH;
			realx0 = x0 - (realvboxW - vboxW)/2 ;
		}
		else
		{
			realvboxH = (vboxW * svgH) / svgW;
			realvboxW = vboxW;
			realy0 = y0 - (realvboxH - vboxH)/2 ;
		}
	}

	// get user zoom/pan

	var newScale = root.currentScale;
	var translation = root.currentTranslate;

	// transform pxl to user unit

	var xPos = (((evt.clientX+10- translation.x)/newScale) * realvboxW)/realsvgW  + realx0 ;
	var yPos = (((evt.clientY+5- translation.y)/newScale) * realvboxH)/ realsvgH  + realy0 ;
	var scaleForWidth = ( (1 / newScale) * realvboxH) / realsvgH;

	// move tooltip

	toolTip.setAttribute("transform", "translate(" + xPos + "," + yPos + ")" );

	// resize tooltip

	var fontsize = 12;
	tiptext.setAttribute("font-size",fontsize*scaleForWidth);
	tiptext.setAttribute("y", fontsize*scaleForWidth);
	var tipBG = svgDocument.getElementById('ToolTipBG');
	var outline = tiptext.getBBox();
	if(tipBG)
	{
		tipBG.setAttribute("stroke-width", 1*scaleForWidth);
		tipBG.setAttribute("width", Number(outline.width) );
		tipBG.setAttribute("height", Number(outline.height) + fontsize*.5*scaleForWidth );
	}
	var ToolTipShadow = svgDocument.getElementById('ToolTipShadow');
	if(ToolTipShadow)
	{
		ToolTipShadow.setAttribute("width", Number(outline.width) );
		ToolTipShadow.setAttribute("height", Number(outline.height) + fontsize*.5*scaleForWidth );
		ToolTipShadow.setAttribute("x", 3*scaleForWidth);
		ToolTipShadow.setAttribute("y", 3*scaleForWidth);
	}
}
function ShowPaper()
{
  var svgDocument = getDocument();
  var paper = svgDocument.getElementById("paperID");
  if(paper)
  {
    paper.setAttribute("transform","scale(1)");
    paper.setAttribute("opacity","1");
    paper.setAttribute("visibility","visible");
  }
  var svg = svgDocument.getRootElement();
  if(svg)
  {
    svg.setAttribute("width","307.000mm");
    svg.setAttribute("height","220.000mm");
    svg.setAttribute("viewBox","-5.000000 -5.000000 307.000000 220.000000");
  }
}
]]></script><defs/><g><path style="fill:#000000;fill-opacity:0.098;fill-rule:evenodd" d="M162.77,10.18L162.53,11.04L161.79,11.82L159.66,13.23L154.68,15.33L146.52,17.80L142.73,18.30L142.55,18.88L141.71,19.56L140.20,20.07L138.66,20.16L138.52,18.28L136.91,18.30L134.64,18.81L127.88,19.39L122.54,19.59L122.24,19.39L122.32,17.37L122.48,16.26L145.05,14.52L145.31,14.23L145.45,13.72L153.42,12.30L159.93,10.72L161.75,9.75L162.31,9.16zM133.95,30.26L135.63,29.42L137.52,29.18L137.50,32.55L136.22,32.46L134.71,31.95L133.95,31.45zM142.63,31.58L144.07,152.59L144.31,189.35L144.59,206.80L144.33,207.30L143.05,208.30L140.45,208.98L138.66,209.07L138.66,32.70L141.22,32.22L142.57,31.44z"/><g id="Actor_.0"><g style="stroke:#000000;stroke-width:0.176"/><g style="stroke:#000000;stroke-width:0.529"><path d="M142.87,18.26L142.87,18.56L142.80,18.84L142.30,19.39L141.37,19.84L140.11,20.15L138.66,20.29L137.17,20.23L135.81,19.99L134.72,19.59L134.03,19.07L133.97,18.92"/></g><g style="stroke:#000000;stroke-width:0.176;stroke-dasharray:2.2 2.2"><path d="M134.29,18.50L134.50,19.01L135.12,19.47L136.09,19.83L137.30,20.04L138.62,20.09L139.92,19.97L141.04,19.70L141.87,19.30L142.31,18.81L142.38,18.55L142.33,18.29L141.91,17.80L141.11,17.39L140.00,17.10L138.72,16.97L137.39,17.00L136.16,17.20L135.18,17.54L134.53,17.99L134.29,18.50L134.30,14.32L134.54,13.81L135.18,13.36L136.17,13.02L137.40,12.82L138.72,12.79L140.01,12.92L141.11,13.21L141.92,13.62L142.34,14.11L142.39,14.37L142.32,14.63L141.88,15.12L141.05,15.52L139.93,15.80L138.63,15.91L137.31,15.86L136.10,15.65L135.13,15.29L134.51,14.83L134.30,14.32"/><path d="M142.87,18.56L142.82,18.26L142.35,17.71L141.45,17.25L140.21,16.92L138.76,16.77L137.27,16.81L135.90,17.04L134.79,17.42L134.06,17.93L133.80,18.50L133.81,14.32L134.04,14.89L134.18,15.00L134.73,15.41L135.82,15.81L137.18,16.05L137.51,16.06L138.67,16.11L140.12,15.97L141.38,15.66L142.31,15.21L142.81,14.67L142.88,14.38L142.83,14.09L142.36,13.53L141.45,13.07L140.21,12.75L138.77,12.59L137.28,12.63L136.99,12.68L135.91,12.86L134.80,13.24L134.07,13.75L133.81,14.32"/><path d="M133.80,18.50L133.97,18.92"/><path d="M142.38,18.55L142.39,14.37"/><path d="M142.88,14.38L142.87,18.26"/></g></g><g id="Actor_.1"><g style="stroke:#000000;stroke-width:0.176"/><g style="stroke:#000000;stroke-width:0.529"><path d="M145.02,8.08L145.04,8.48L145.11,9.72L145.19,11.04L145.30,12.37L145.32,12.69L145.41,13.66L145.52,14.86L145.63,15.92L145.74,16.80L145.77,16.98L145.84,17.46L145.93,17.88L146.00,18.03L148.89,17.23L153.09,15.95L156.26,14.84L158.61,13.86L160.31,13.01L161.46,12.28L162.21,11.64L162.67,11.09L162.89,10.57L162.93,10.15L162.84,9.75L162.83,9.73L162.54,9.27L162.01,8.79L161.18,8.28L159.93,7.73L158.13,7.14L155.62,6.52L152.33,5.89L147.98,5.25L145.00,4.89L144.96,5.15L144.95,5.66L144.95,6.40L144.98,7.36L145.02,8.08"/></g><g style="stroke:#000000;stroke-width:0.176;stroke-dasharray:2.2 2.2"><path d="M145.04,8.48L145.11,9.74L145.20,11.04L145.30,12.36L145.41,13.64L145.52,14.83L145.63,15.88L145.74,16.75L145.83,17.31L145.84,17.40L145.93,17.81L145.99,17.96L150.62,16.66L154.13,15.54L156.90,14.52L158.88,13.67L160.33,12.92L161.39,12.25L162.11,11.66L162.54,11.16L162.79,10.69L162.87,10.29L162.87,10.16L162.85,10.02L162.71,9.63L162.40,9.21L161.91,8.79L161.11,8.31L159.96,7.81L158.43,7.29L156.31,6.74L153.41,6.15L149.78,5.56L145.01,4.96L144.97,5.21L144.95,5.71L144.96,6.45L144.99,7.40L145.04,8.48"/><path d="M145.00,4.89L145.06,4.91L145.14,5.19L145.23,5.73L145.34,6.51L145.45,7.48L145.56,8.62L145.68,9.88L145.78,11.19L145.88,12.52L145.96,13.81L146.02,15.00L146.06,16.04L146.08,16.89L146.08,17.53L146.05,17.91L146.00,18.03"/><path d="M145.01,4.96L145.06,4.97L145.14,5.25L145.23,5.79L145.34,6.56L145.45,7.52L145.56,8.65L145.67,9.89L145.78,11.20L145.87,12.51L145.95,13.78L146.02,14.96L146.06,15.99L146.07,16.84L146.07,17.47L146.04,17.85L145.99,17.96"/></g></g><g id="Actor_.2"><g style="stroke:#000000;stroke-width:0.176"><path d="M145.05,8.68L145.04,8.52"/><path d="M144.97,6.83L144.98,7.15"/><path d="M144.95,5.77L144.95,5.99"/><path d="M144.97,5.12L144.97,5.08L144.98,5.06"/><path d="M145.03,4.87L145.02,4.90"/><path d="M145.90,17.75L145.89,17.71L145.87,17.60"/><path d="M145.98,18.00L145.99,18.03"/><path d="M145.75,16.84L145.77,16.97"/><path d="M145.58,15.38L145.61,15.72"/><path d="M145.43,13.87L145.46,14.25"/><path d="M145.27,11.98L145.29,12.27"/><path d="M145.16,10.58L145.13,10.11"/></g><g style="stroke:#000000;stroke-width:0.529"><path d="M134.58,18.87L123.17,19.72L122.91,19.70L122.68,19.60L122.48,19.43L122.42,19.36L122.29,19.14L122.16,18.60L122.08,18.08L121.98,17.36L121.88,16.47L121.78,15.45L121.69,14.34L121.65,13.85L121.59,13.18L121.51,12.02L121.45,10.91L121.40,9.90L121.36,9.02L121.35,8.31L121.36,7.80L121.38,7.56L121.41,7.26L121.51,7.03L121.73,6.77L121.95,6.64L122.20,6.58L145.03,4.87L145.04,4.90"/><path d="M141.91,18.33L145.99,18.03L146.00,18.02"/></g><g style="stroke:#000000;stroke-width:0.176;stroke-dasharray:2.2 2.2"><path d="M146.00,18.02L146.06,17.81L146.08,17.08L146.06,15.90L145.99,14.35L145.96,13.85L145.98,14.32L146.05,15.85L146.08,17.03L146.05,17.75L145.99,17.96L123.17,19.66L122.93,19.64L122.71,19.55L122.53,19.39L122.47,19.32L122.35,19.12L122.22,18.59L122.14,18.08L122.04,17.36L121.95,16.47L121.85,15.45L121.75,14.34L121.63,12.78L121.58,12.02L121.51,10.91L121.46,9.89L121.43,9.23L121.43,9.01L121.41,8.30L121.42,7.80L121.47,7.28L121.56,7.06L121.77,6.82L121.97,6.70L122.20,6.64L145.04,4.93L145.14,5.25L145.27,6.07L145.43,7.32L145.62,9.23L145.75,10.77L145.72,10.38"/><path d="M141.91,18.33L134.58,18.87"/><path d="M145.04,8.52L144.98,7.15"/><path d="M145.13,10.11L145.04,8.57L144.98,7.04L144.95,5.87L144.97,5.15L145.04,4.93"/><path d="M144.97,6.83L144.95,5.99"/><path d="M144.95,5.77L144.97,5.12"/><path d="M144.98,5.06L145.02,4.90"/><path d="M145.04,4.90L145.14,5.19L145.27,6.02L145.43,7.28L145.59,8.89L145.62,9.23"/><path d="M145.43,13.87L145.43,13.85L145.60,15.57L145.75,16.83L145.89,17.65L145.99,17.96"/><path d="M145.90,17.75L145.98,18.00"/><path d="M145.87,17.60L145.77,16.97"/><path d="M145.61,15.72L145.75,16.84"/><path d="M145.58,15.38L145.46,14.25"/><path d="M145.96,13.85L145.94,13.58L145.96,13.85"/><path d="M145.43,13.85L145.41,13.66L145.43,13.85"/><path d="M145.81,11.54L145.77,11.00L145.89,12.69L145.94,13.58"/><path d="M145.89,12.69L145.86,12.31"/><path d="M145.41,13.66L145.29,12.27"/><path d="M145.27,11.98L145.24,11.54L145.30,12.37"/><path d="M145.20,11.04L145.24,11.54L145.20,11.03L145.20,11.04"/><path d="M145.77,11.00L145.75,10.77"/><path d="M145.16,10.58L145.20,11.03L145.15,10.34L145.11,9.72"/><path d="M145.08,9.23L145.05,8.68"/></g></g><g id="Actor_.3"><g style="stroke:#000000;stroke-width:0.176"><path d="M131.93,190.14L132.38,190.52L132.20,190.42L131.66,189.92L131.48,189.45L131.55,189.77L131.66,189.87"/><path d="M131.38,189.21L131.48,189.45"/><path d="M144.41,170.89L144.17,171.59L143.52,172.16L143.43,172.24L142.25,172.77L140.73,173.16L138.99,173.36L137.19,173.36L135.43,173.16L133.89,172.79L132.69,172.25L131.92,171.61L131.64,170.92"/><path d="M132.36,155.06L132.38,155.09L132.17,154.91L131.96,154.38L132.23,136.92L132.17,136.76"/><path d="M132.38,155.09L132.91,155.53L133.86,155.94"/><path d="M131.91,154.24L131.96,154.38"/><path d="M132.23,136.92L132.43,137.41L132.61,137.56L133.47,138.15L133.14,138.00L132.61,137.56L132.24,136.88L132.24,136.56"/><path d="M133.28,190.98L133.53,191.06L132.86,190.76L133.28,190.98"/><path d="M132.86,190.76L132.46,190.58L132.38,190.52"/><path d="M133.47,138.15L134.26,138.50L134.94,138.69L135.68,138.85L136.48,138.96L137.31,139.03L138.15,139.05L138.99,139.03L139.82,138.95L140.61,138.84L141.35,138.68L142.02,138.48L142.74,138.18L143.11,137.98L143.51,137.70L143.80,137.39L143.97,137.07L144.02,136.74"/><path d="M132.45,119.40L132.81,120.04L133.64,120.62L134.87,121.08L136.41,121.37L138.07,121.48L139.75,121.39L140.55,121.28L141.29,121.12L142.55,120.68L143.41,120.11L143.81,119.47"/><path d="M137.95,103.90L138.49,103.89L138.11,103.91L137.13,103.87L136.50,103.81L135.52,103.64L135.04,103.52L134.17,103.23L133.85,103.09L133.22,102.68L133.06,102.53L132.90,102.26L132.74,102.04L132.71,101.91"/><path d="M133.16,102.61L132.90,102.26"/><path d="M132.74,101.97L132.75,101.76"/><path d="M143.40,84.07L143.35,84.70L142.79,85.30L141.78,85.80L140.44,86.15L138.85,86.33L137.22,86.31L135.67,86.09L134.69,85.79L134.38,85.69L133.46,85.16L133.01,84.55"/><path d="M133.53,67.42L133.82,67.72L133.70,67.65L133.51,67.39L133.32,67.19L133.32,67.13L133.27,67.06"/><path d="M133.32,67.13L133.29,66.77"/><path d="M134.19,191.26L134.71,191.41L135.03,191.46L133.70,191.14L133.53,191.06"/><path d="M133.53,155.81L134.07,156.04L134.78,156.25L135.56,156.41L136.38,156.53L137.24,156.60L138.12,156.62L138.99,156.59L139.85,156.52L140.67,156.40L141.44,156.23L142.14,156.03L142.75,155.79L143.27,155.51L143.69,155.21L143.98,154.89L144.16,154.56L144.22,154.22"/><path d="M134.32,138.46L133.53,138.18L134.05,138.40L134.69,138.60L134.32,138.46"/><path d="M134.69,103.39L135.30,103.58"/><path d="M133.53,102.87L134.04,103.16"/><path d="M133.92,103.09L133.84,103.04"/><path d="M134.66,68.16L134.69,68.19L134.58,68.15L134.23,67.95L134.66,68.16L134.50,68.08"/><path d="M134.69,68.19L134.94,68.29L135.84,68.53L135.36,68.39"/><path d="M133.82,67.72L133.89,67.79L134.23,67.95"/><path d="M133.77,67.66L133.69,67.58"/><path d="M143.05,49.32L142.83,49.92L142.11,50.46L140.98,50.89L140.30,51.04L139.56,51.14L138.00,51.20L136.47,51.07L135.12,50.74L134.13,50.27L133.58,49.69L133.54,49.08"/><path d="M133.82,30.66L133.86,31.24L134.37,31.78L135.32,32.23L135.84,32.36L135.34,32.22L134.40,31.78L133.89,31.24L133.85,30.66L134.30,30.11L135.18,29.65L136.40,29.33L137.83,29.17L139.31,29.21L140.68,29.43L141.80,29.81L142.53,30.31L142.81,30.88L142.60,31.45L141.93,31.96L141.59,32.11L140.88,32.37L140.23,32.51L139.53,32.61L140.23,32.51"/><path d="M135.84,191.59L136.77,191.69L136.38,191.68L135.30,191.53L135.03,191.46"/><path d="M134.73,138.61L135.84,138.84L134.69,138.60"/><path d="M135.84,138.84L136.83,138.97L138.03,139.03L136.83,138.97"/><path d="M135.84,103.69L136.36,103.78L136.83,103.83"/><path d="M134.96,103.47L135.12,103.52"/><path d="M136.10,68.57L135.84,68.53L136.34,68.63L137.29,68.74L137.95,68.77L138.85,68.76L138.37,68.76"/><path d="M135.67,68.47L135.94,68.53"/><path d="M136.77,191.69L137.11,191.73L138.17,191.75L138.99,191.73L139.95,191.64L140.44,191.57L139.44,191.68"/><path d="M136.50,103.81L136.60,103.80"/><path d="M136.59,32.54L136.99,32.58L136.59,32.54L135.84,32.36L136.59,32.54"/><path d="M137.62,191.73L138.60,191.73"/><path d="M138.03,139.03L139.29,138.98L138.57,139.02"/><path d="M137.42,68.74L137.27,68.72L137.29,68.74"/><path d="M136.99,68.70L137.27,68.72"/><path d="M138.14,32.67L139.29,32.62L138.05,32.67L136.99,32.58L138.05,32.67"/><path d="M139.56,103.82L139.95,103.78L138.84,103.90L138.49,103.89"/><path d="M138.14,103.91L138.22,103.89"/><path d="M138.85,68.76L139.29,68.72L138.85,68.76"/><path d="M138.83,68.75L139.00,68.73"/><path d="M140.44,191.57L141.59,191.35L141.98,191.22L140.79,191.52L140.44,191.57"/><path d="M140.44,156.43L140.67,156.40"/><path d="M140.72,138.79L141.35,138.65L140.59,138.82L139.76,138.94L139.29,138.98"/><path d="M139.29,103.85L139.72,103.83L140.44,103.72L139.95,103.78"/><path d="M139.29,68.72L139.58,68.71L140.36,68.60L141.08,68.44L141.66,68.26L142.02,68.08"/><path d="M140.44,32.47L140.86,32.36L141.96,31.97L142.64,31.45L142.85,30.88"/><path d="M139.53,32.61L139.29,32.62L139.53,32.61"/><path d="M141.50,191.34L141.59,191.32"/><path d="M141.35,138.65L142.65,138.20L142.04,138.45L141.59,138.58"/><path d="M141.20,103.56L141.59,103.43L140.48,103.72L141.20,103.56"/><path d="M140.44,103.72L140.48,103.72L140.44,103.72"/><path d="M141.28,103.51L140.95,103.60"/><path d="M141.59,103.43L141.90,103.35L142.40,103.14L142.74,102.93L142.12,103.24"/><path d="M141.33,68.34L141.69,68.22L141.59,68.26"/><path d="M141.98,191.22L142.37,191.12L142.95,190.90L143.26,190.71L142.74,190.96"/><path d="M142.65,138.20L143.54,137.62L143.81,137.29L143.95,136.95L143.95,136.54"/><path d="M142.74,102.93L142.95,102.82L143.06,102.71L143.23,102.60L143.37,102.38L143.54,102.20L143.53,102.11L143.62,101.98"/><path d="M142.45,103.08L142.28,103.16"/><path d="M142.41,67.89L142.74,67.65L142.62,67.78L142.41,67.89L142.26,68.00L141.69,68.22"/><path d="M142.66,67.70L142.50,67.81"/><path d="M143.26,190.71L143.59,190.56L143.73,190.44L143.95,190.31L144.14,190.09L143.73,190.44"/><path d="M143.95,136.95L143.54,137.62L143.15,137.92L142.74,138.15"/><path d="M143.06,102.71L143.37,102.38"/><path d="M143.53,102.11L143.56,101.92L143.57,101.98L143.53,102.04"/><path d="M143.56,101.92L143.58,101.74"/><path d="M143.23,102.53L143.14,102.62"/><path d="M143.05,67.32L143.20,66.92L143.16,67.21L143.05,67.32L143.01,67.43L142.74,67.65"/><path d="M143.20,66.92L143.21,66.88"/><path d="M143.12,67.12L143.12,67.21L143.08,67.25"/><path d="M144.14,190.09L144.36,189.90L144.40,189.78L144.50,189.65L144.53,189.39L144.58,189.25"/><path d="M144.53,189.39L144.40,189.78"/><path d="M143.98,154.89L143.90,154.99"/></g><g style="stroke:#000000;stroke-width:0.529"><path d="M131.23,207.01L131.12,206.55L132.17,136.76L132.24,136.56L132.45,119.40L132.71,101.91L132.75,101.76L133.27,67.06L133.29,66.77L133.82,30.66L134.27,30.11L135.16,29.64L136.39,29.32L137.83,29.16L139.32,29.20L140.70,29.42L141.82,29.81L142.56,30.31L142.85,30.88L143.24,66.79L143.21,66.88L143.59,101.54L143.58,101.74L143.62,101.98L143.81,119.47L143.95,136.54L144.02,136.74L144.41,170.89L144.77,206.42L144.69,207.15L144.12,207.83L143.09,208.43L141.67,208.90L140.86,209.08L139.98,209.21L138.15,209.32L136.29,209.24L134.56,208.97L133.08,208.52L131.97,207.94L131.30,207.27L131.23,207.01"/></g><g style="stroke:#000000;stroke-width:0.176;stroke-dasharray:2.2 2.2"><path d="M131.18,206.55L131.50,205.84L132.31,205.20L133.13,204.84L133.53,204.66L135.08,204.27L136.85,204.06L138.69,204.05L139.98,204.17L140.49,204.22L142.09,204.58L143.39,205.10L143.90,205.45L144.28,205.73L144.71,206.42L144.63,207.14L144.06,207.82L143.04,208.42L141.64,208.88L140.83,209.06L139.97,209.19L138.15,209.30L136.99,209.25L136.31,209.22L134.59,208.95L133.09,208.48L132.02,207.93L131.36,207.26L131.18,206.55L131.45,189.23L131.72,189.91L132.38,190.47L132.26,190.41"/><path d="M131.12,206.54L131.45,205.83L132.26,205.18L133.49,204.64L135.06,204.25L135.23,204.23L136.84,204.04L138.70,204.02L140.51,204.20L141.59,204.44L142.13,204.56L143.44,205.08L144.34,205.72L144.77,206.42"/><path d="M132.38,190.47L132.51,190.57L133.55,191.03L133.33,190.97L132.38,190.47"/><path d="M131.93,190.14L131.66,189.87"/><path d="M131.44,189.07L131.45,189.23L131.44,189.20L131.68,188.49L132.15,188.08L131.76,188.39L131.44,189.07L131.62,189.76L132.24,190.38"/><path d="M131.48,189.45L131.38,189.07L131.38,189.20L131.63,188.47L132.08,188.08L131.70,188.38L131.38,189.07"/><path d="M132.08,188.08L132.49,187.76L133.61,187.25L133.74,187.22L133.53,187.29"/><path d="M131.44,189.20L131.70,170.77L131.64,170.92"/><path d="M132.15,188.08L132.54,187.77L133.72,187.25L135.22,186.87L137.00,186.67L136.65,186.71"/><path d="M132.38,187.89L132.49,187.80L133.50,187.34"/><path d="M132.38,187.83L132.49,187.76"/><path d="M132.35,171.92L131.97,171.61L131.70,170.91L131.94,170.22L132.67,169.58L133.84,169.05L135.35,168.67L137.07,168.47L138.87,168.47L140.61,168.66L142.13,169.04L143.32,169.56L144.09,170.20L144.36,170.89L144.11,171.59L143.38,172.22L142.21,172.75L140.71,173.13L138.99,173.33L137.18,173.34L135.45,173.14L133.93,172.77L132.74,172.24L132.35,171.92"/><path d="M138.67,151.89L138.90,151.89L137.14,151.88L135.48,152.08L134.03,152.44L132.90,152.96L132.32,153.46L132.13,153.66L131.96,154.38L131.70,170.77L131.88,170.22L132.61,169.59L133.80,169.04L135.46,168.64L137.06,168.45L138.88,168.45L140.63,168.64L142.23,169.05L143.37,169.55L144.14,170.19L144.41,170.89"/><path d="M134.07,156.04L134.69,156.19L134.07,156.01L132.96,155.52L132.22,154.91L132.11,154.63L132.36,155.06"/><path d="M131.96,154.24L132.11,154.63L131.96,154.38L131.96,154.24L132.17,153.64L132.81,153.01L132.95,152.95"/><path d="M138.90,151.89L140.55,152.07L142.02,152.43L142.23,152.51L142.05,152.41L140.57,152.05L138.88,151.86L137.13,151.86L135.45,152.06L133.99,152.43L132.84,152.95L132.14,153.57L131.91,154.24"/><path d="M132.28,136.88L132.65,137.54L133.50,138.13L134.76,138.60L136.32,138.90L138.03,139.01L139.77,138.92L140.56,138.80L141.32,138.64L142.61,138.19L143.49,137.61L143.90,136.96L143.79,136.28L143.17,135.65L142.11,135.11L140.68,134.73L139.03,134.52L137.29,134.51L135.84,134.67L135.63,134.69L134.18,135.07L133.09,135.59L132.43,136.21L132.28,136.88L132.50,118.85L132.76,101.91L132.84,101.54L132.78,102.04L133.25,102.67L133.53,102.86"/><path d="M132.23,136.92L132.38,136.22L132.44,136.15L133.04,135.58L134.15,135.05L135.61,134.68L137.29,134.49L139.04,134.50L139.29,134.53L138.89,134.47L137.20,134.47L135.59,134.66L134.18,135.02L133.08,135.51L132.40,136.11L132.24,136.56"/><path d="M132.86,190.76L132.38,190.51"/><path d="M133.53,187.33L133.74,187.25"/><path d="M133.25,155.68L132.38,155.08"/><path d="M143.90,136.96L143.76,119.47L143.37,120.10L142.51,120.66L141.26,121.10L140.53,121.26L139.75,121.37L138.07,121.46L136.41,121.35L134.87,121.05L133.68,120.61L132.85,120.04L132.50,119.40L132.64,118.75L133.27,118.14L134.34,117.64L135.84,117.26L137.35,117.09L139.04,117.10L140.66,117.29L142.05,117.67L143.10,118.19L143.70,118.81L143.81,119.47"/><path d="M132.45,119.40L132.59,118.74L132.83,118.52L133.23,118.13L134.31,117.62L135.72,117.26L137.35,117.08L137.68,117.09"/><path d="M133.11,102.53L133.53,102.83L133.16,102.61"/><path d="M132.74,102.04L132.79,101.54L132.78,102.04"/><path d="M132.90,102.26L132.74,101.97"/><path d="M132.76,101.91L133.09,102.51"/><path d="M133.20,101.00L132.84,101.38L132.84,101.54L132.90,101.29L133.50,100.71L133.53,100.70L133.42,100.76L133.24,100.96"/><path d="M132.75,101.76L132.80,101.38L133.38,100.75L133.53,100.68L133.46,100.70L133.24,100.91"/><path d="M133.53,100.68L134.43,100.23L134.69,100.16L134.49,100.21L134.21,100.35"/><path d="M133.53,100.70L134.53,100.22L134.69,100.18L134.46,100.24L134.21,100.37"/><path d="M137.59,103.88L137.14,103.86L138.84,103.88L140.47,103.70L141.59,103.42L141.87,103.33L142.92,102.82L143.49,102.20L143.55,101.54L143.36,84.23L143.30,84.70L142.74,85.30L141.75,85.79L140.40,86.14L138.85,86.31L137.22,86.29L135.69,86.07L134.41,85.68L133.53,85.18L133.05,84.55L132.79,101.54L132.85,101.28L133.20,100.96"/><path d="M133.01,84.55L133.05,84.23L133.05,84.55L133.10,83.92L133.65,83.32L134.65,82.83L136.00,82.48L136.90,82.38L135.98,82.46L134.63,82.82L133.62,83.32L133.06,83.91L133.05,84.23L133.31,67.06"/><path d="M133.51,67.39L133.32,67.13"/><path d="M133.32,67.08L133.53,67.38L133.36,67.19L133.31,66.56L133.53,66.28L133.36,66.46L133.32,66.92"/><path d="M133.33,66.49L133.32,66.45L133.53,66.24L133.28,66.55"/><path d="M133.53,66.28L133.89,65.89L133.92,65.89L133.81,65.95L133.53,66.28"/><path d="M133.32,66.51L133.31,66.56L133.58,49.08L134.05,48.51L134.98,48.02L136.26,47.68L137.77,47.52L139.33,47.56L140.77,47.79L142.10,48.27L142.75,48.71L143.05,49.32"/><path d="M133.29,66.77L133.31,66.56"/><path d="M134.19,191.26L133.70,191.11L135.30,191.50L135.82,191.59"/><path d="M134.69,191.37L133.55,191.03L133.70,191.11L133.53,191.06"/><path d="M133.74,187.22L135.19,186.85L136.99,186.65L136.65,186.68"/><path d="M137.24,156.60L138.12,156.60L137.25,156.58L135.58,156.39L134.11,156.03L133.86,155.94"/><path d="M134.11,152.43L133.89,152.51"/><path d="M133.92,103.09L134.69,103.37L134.17,103.20L134.59,103.36"/><path d="M134.04,103.16L134.17,103.20L133.53,102.83L133.84,103.04"/><path d="M134.96,103.47L134.69,103.37L135.54,103.63L135.84,103.68L135.30,103.58L136.37,103.76"/><path d="M134.69,100.18L135.87,99.88L136.79,99.77L135.85,99.86L134.69,100.16"/><path d="M135.36,68.39L134.94,68.27L133.89,67.76L134.23,67.95"/><path d="M133.69,67.58L133.53,67.38L133.89,67.76L133.82,67.72"/><path d="M134.49,68.08L133.77,67.66"/><path d="M133.92,65.89L134.85,65.42L134.97,65.39L134.78,65.44L134.69,65.50"/><path d="M133.92,65.87L134.69,65.47L133.78,65.94L133.53,66.24L133.86,65.90"/><path d="M136.10,65.07L134.97,65.37L134.69,65.47L134.81,65.41L136.12,65.07L136.36,65.05L136.13,65.08L135.84,65.16"/><path d="M133.85,30.66L133.58,48.46L133.58,49.08L133.62,49.69L134.16,50.26L135.15,50.73L136.47,51.05L138.00,51.19L139.56,51.13L140.30,51.02L140.96,50.87L142.08,50.45L142.79,49.92L143.02,49.32L142.72,48.72L141.96,48.18L141.59,48.07"/><path d="M133.54,49.08L134.02,48.50L134.95,48.01L135.01,48.01"/><path d="M134.74,191.39L135.84,191.56L135.03,191.46"/><path d="M136.77,191.69L136.99,191.70L135.84,191.56L136.39,191.65"/><path d="M135.56,156.41L134.78,156.22L135.84,156.44L135.56,156.41"/><path d="M134.78,156.22L134.69,156.19"/><path d="M135.84,103.68L136.99,103.84L136.83,103.83"/><path d="M135.30,103.58L135.12,103.52"/><path d="M135.67,68.47L134.78,68.22L136.35,68.62L136.79,68.67"/><path d="M134.78,68.22L134.69,68.17"/><path d="M136.41,191.65L138.14,191.73"/><path d="M136.99,186.65L138.87,186.64L138.99,186.66L138.49,186.64"/><path d="M138.12,156.60L138.90,156.58L136.99,156.57L135.84,156.44L136.38,156.50"/><path d="M136.99,151.90L137.26,151.88"/><path d="M136.99,103.84L137.14,103.86"/><path d="M136.60,103.80L137.95,103.88"/><path d="M135.85,99.86L137.41,99.68L138.14,99.71L137.42,99.70L137.15,99.73L137.50,99.70L138.45,99.69L138.84,99.69L139.04,99.71L138.84,99.72L139.29,99.74L139.04,99.71L139.29,99.72L139.20,99.72"/><path d="M136.79,99.77L137.15,99.73"/><path d="M136.90,82.38L137.56,82.30L139.19,82.33L140.74,82.53L142.03,82.93L142.95,83.46L143.40,84.07"/><path d="M136.35,68.62L136.99,68.68L136.10,68.57L136.35,68.62"/><path d="M136.99,68.68L137.95,68.76L138.14,68.75L137.43,68.73"/><path d="M136.10,68.57L135.94,68.53"/><path d="M136.36,65.05L137.71,64.91L137.96,64.92L137.62,64.92"/><path d="M137.61,191.73L137.12,191.71L138.99,191.70L138.60,191.73"/><path d="M137.12,191.71L136.99,191.70"/><path d="M138.49,186.66L138.99,186.68L138.70,186.66L137.00,186.67"/><path d="M138.14,99.71L138.84,99.72"/><path d="M138.65,68.75L138.14,68.75L138.37,68.76"/><path d="M138.14,68.75L139.29,68.72L139.00,68.73"/><path d="M137.95,68.76L137.63,68.75"/><path d="M136.99,64.99L137.62,64.90L139.24,64.95L138.14,64.92"/><path d="M139.90,191.62L138.20,191.73"/><path d="M139.44,191.68L138.99,191.70"/><path d="M139.29,191.68L140.44,191.54L139.99,191.61"/><path d="M140.44,186.84L140.66,186.86L141.59,187.09L140.44,186.84L138.99,186.68"/><path d="M138.99,186.66L140.69,186.84L140.78,186.88L140.44,186.82"/><path d="M138.90,156.58L140.65,156.38L139.79,156.50L138.99,156.57"/><path d="M138.14,156.60L138.99,156.59L139.79,156.50"/><path d="M139.21,151.92L138.99,151.89"/><path d="M139.29,134.53L140.51,134.65L141.94,135.00L143.05,135.49L143.77,136.09L143.95,136.54"/><path d="M139.04,117.10L140.64,117.31L142.02,117.68L143.06,118.20L143.66,118.81L143.76,119.47L143.57,101.98"/><path d="M138.49,103.89L139.25,103.85"/><path d="M138.22,103.89L139.56,103.82"/><path d="M139.24,64.95L139.58,65.00L139.29,64.94L139.24,64.95"/><path d="M139.29,64.95L139.58,64.97L140.18,65.09L139.58,65.00"/><path d="M140.44,191.54L140.77,191.50L140.44,191.54"/><path d="M139.34,134.54L140.71,134.71L142.14,135.10L143.22,135.64L143.84,136.28L143.95,136.95L144.14,154.44L144.03,153.74L143.66,153.36L143.16,152.94L142.00,152.44"/><path d="M140.44,103.70L139.95,103.78"/><path d="M140.12,99.85L140.81,99.93L141.59,100.17L140.60,99.89L139.29,99.72L140.12,99.85L139.29,99.74"/><path d="M140.44,82.51L140.72,82.55L142.00,82.94L142.91,83.46L143.36,84.07L143.36,84.23"/><path d="M141.50,68.28L140.36,68.58L139.29,68.72L140.36,68.60L139.58,68.69"/><path d="M140.36,68.60L141.33,68.34"/><path d="M139.73,65.02L140.88,65.18L142.12,65.61L142.24,65.71L142.09,65.62L141.59,65.45L140.64,65.15L140.48,65.13L140.86,65.19L140.91,65.23"/><path d="M140.35,65.11L140.33,65.09L140.66,65.13L140.91,65.21"/><path d="M140.15,47.69L140.29,47.71"/><path d="M140.77,191.50L142.37,191.09L141.98,191.22"/><path d="M140.79,191.49L141.50,191.34"/><path d="M141.59,187.07L140.78,186.88L142.28,187.23L142.34,187.28L142.01,187.17"/><path d="M140.65,156.38L142.14,156.00L141.44,156.21L140.67,156.38"/><path d="M140.67,156.40L141.44,156.21"/><path d="M140.44,152.07L140.77,152.11L140.83,152.14"/><path d="M140.48,103.70L140.95,103.60"/><path d="M141.28,103.51L142.28,103.16"/><path d="M141.59,100.17L141.88,100.26L141.63,100.20L142.13,100.36L142.93,100.76L143.51,101.35L143.53,101.45L143.12,100.90L142.81,100.72L142.89,100.76L142.93,100.82L141.93,100.25L141.63,100.18"/><path d="M140.58,99.91L141.59,100.19L140.79,99.95L140.47,99.90L140.58,99.91"/><path d="M141.59,100.19L141.63,100.20"/><path d="M141.08,68.42L142.26,67.97L142.02,68.08"/><path d="M140.44,68.58L141.06,68.43"/><path d="M141.59,191.31L142.89,190.88"/><path d="M142.62,191.00L142.37,191.09L143.59,190.52L143.26,190.71"/><path d="M142.34,187.28L143.52,187.79L143.89,188.08L143.29,187.65L142.74,187.44"/><path d="M142.24,187.25L141.59,187.09L142.01,187.20L142.35,187.32L142.24,187.25"/><path d="M142.35,187.32L143.38,187.77L143.82,188.08L143.47,187.80L143.38,187.77L143.24,187.67L142.74,187.48"/><path d="M141.59,156.17L142.14,156.03L142.71,155.77L142.14,156.00"/><path d="M142.16,155.99L143.22,155.50L143.89,154.92L143.72,155.13L143.31,155.45L142.71,155.77"/><path d="M143.70,153.40L143.90,153.55L144.16,154.22L143.93,154.89L143.89,154.92L143.98,154.81L144.08,154.62L144.22,154.22L143.95,153.54L143.22,152.93L142.23,152.51L142.66,152.72"/><path d="M142.12,103.24L141.59,103.42"/><path d="M142.45,103.08L143.14,102.62"/><path d="M142.23,100.38L141.88,100.26L142.74,100.69L142.23,100.38"/><path d="M141.75,68.19L142.50,67.81"/><path d="M142.66,67.70L142.74,67.60L142.26,67.97L142.41,67.89"/><path d="M143.24,66.79L142.93,66.16L142.74,66.03L143.00,66.38L142.90,66.17L142.31,65.77L142.74,66.03L142.24,65.71"/><path d="M142.35,65.77L142.77,66.02L143.21,66.60L143.17,67.00L143.36,84.07"/><path d="M142.31,65.77L141.87,65.52L141.59,65.45"/><path d="M142.24,65.74L141.90,65.51L141.59,65.43"/><path d="M144.71,206.42L144.53,189.23L144.30,189.89L143.59,190.52L143.73,190.44"/><path d="M143.82,188.08L144.10,188.28L144.51,188.95L144.44,189.65L143.89,190.31L142.92,190.87"/><path d="M143.89,188.08L144.32,188.45L144.61,189.17"/><path d="M142.79,155.74L143.27,155.51L143.68,155.16"/><path d="M143.72,155.13L143.90,154.97"/><path d="M142.81,152.79L143.38,153.08L143.66,153.36"/><path d="M142.74,102.92L143.06,102.71"/><path d="M143.53,102.11L143.37,102.38"/><path d="M143.58,101.74L143.55,101.54L143.08,100.90L142.93,100.82L143.47,101.35L143.56,101.92"/><path d="M143.23,102.53L143.53,102.04"/><path d="M143.55,101.54L143.53,101.45L143.59,101.54"/><path d="M142.74,100.69L142.81,100.72"/><path d="M143.18,66.92L143.17,66.60L143.00,66.38L143.21,66.79L143.01,67.34L142.74,67.60L142.98,67.42L143.01,67.32L143.08,67.25"/><path d="M142.80,67.59L143.05,67.32"/><path d="M143.12,67.12L143.17,66.60"/><path d="M143.21,66.79L142.81,30.88"/><path d="M143.21,66.60L143.21,66.88"/><path d="M144.14,190.09L144.40,189.78"/><path d="M144.53,189.39L144.58,188.95L144.28,188.46L144.55,189.17L144.53,189.23L144.51,188.95"/><path d="M144.58,188.95L144.58,189.25"/><path d="M143.90,188.15L144.28,188.46L144.16,188.27L143.90,188.09"/><path d="M144.16,154.22L144.37,170.77L144.55,189.17"/><path d="M143.98,154.89L144.14,154.44"/></g></g><g/><g id="paperID" visibility="hidden" opacity="0.00" transform="scale(0.000100)"><path style="stroke:#000000;stroke-width:0.500;fill:#e6e6e6;fill-rule:evenodd" d="M-2000.00,-2000.00L2297.00,-2000.00L2297.00,2210.00L-2000.00,2210.00zM0.00,0.00L297.00,0.00L297.00,210.00L0.00,210.00z"/><path style="fill:#000000;fill-opacity:0.118" d="M3.00,210.00L297.00,210.00L297.00,3.00L300.00,3.00L300.00,213.00L3.00,213.00z"/></g><g id="ToolTip" visibility="hidden" opacity="0" transform="translate(0,0)"><rect id="ToolTipShadow" opacity="0.20" fill="black" stroke="none" x="0" y="0" width="30" height="8"/><rect id="ToolTipBG" fill="#ffffe1" stroke="black" x="0" y="0" width="30" height="8"/><text xml:space="preserve" id="ToolTipText" fill="black" x="0" y="0" width="30" height="8">tooltip</text></g></g></svg>
