%!PS-Adobe-3.0 EPSF-3.0 
%%BoundingBox: 0 0 519 232
%%Pages: 0
%%Creator: LibreOffice 6.4
%%Title: none
%%CreationDate: none
%%LanguageLevel: 2
%%EndComments
%%BeginProlog
%%BeginResource: procset SDRes-Prolog 1.0 0
/b4_inc_state save def
/dict_count countdictstack def
/op_count count 1 sub def
userdict begin
0 setgray 0 setlinecap 1 setlinewidth 0 setlinejoin 10 setmiterlimit[] 0 setdash newpath
/languagelevel where {pop languagelevel 1 ne {false setstrokeadjust false setoverprint} if} if
/bdef {bind def} bind def
/c {setgray} bdef
/l {neg lineto} bdef
/rl {neg rlineto} bdef
/lc {setlinecap} bdef
/lj {setlinejoin} bdef
/lw {setlinewidth} bdef
/ml {setmiterlimit} bdef
/ld {setdash} bdef
/m {neg moveto} bdef
/ct {6 2 roll neg 6 2 roll neg 6 2 roll neg curveto} bdef
/r {rotate} bdef
/t {neg translate} bdef
/s {scale} bdef
/sw {show} bdef
/gs {gsave} bdef
/gr {grestore} bdef
/f {findfont dup length dict begin
{1 index /FID ne {def} {pop pop} ifelse} forall /Encoding ISOLatin1Encoding def
currentdict end /NFont exch definefont pop /NFont findfont} bdef
/p {closepath} bdef
/sf {scalefont setfont} bdef
/ef {eofill}bdef
/pc {closepath stroke}bdef
/ps {stroke}bdef
/pum {matrix currentmatrix}bdef
/pom {setmatrix}bdef
/bs {/aString exch def /nXOfs exch def /nWidth exch def currentpoint nXOfs 0 rmoveto pum nWidth aString stringwidth pop div 1 scale aString show pom moveto} bdef
%%EndResource
%%EndProlog
%%BeginSetup
%%EndSetup
%%Page: 1 1
%%BeginPageSetup
%%EndPageSetup
pum
0.02836 0.02829 s 
0 -8200 t
/tm matrix currentmatrix def
tm setmatrix
-1399 -8739 t 
1 1 s 
gs
29 lw 1 lj 0.000 c 2135 14195 m  3679 13517 l  ps
gr
gs
0.000 c 3616 13413 m  3886 13426 l  3713 13634 l  3616 13413 l  p ef
gr
gs
29 lw 1 lj 0.000 c 2133 14195 m  2135 12511 l  ps
gr
gs
0.000 c 2014 12527 m  2135 12286 l  2256 12527 l  2014 12527 l  p ef
gr
gs
29 lw 1 lj 0.000 c 2133 14195 m  3622 14988 l  ps
gr
gs
0.000 c 3664 14873 m  3821 15093 l  3551 15086 l  3664 14873 l  p ef
gr
gs
27.98694 lw 1 lj 0.000 c 2035 14239 m  2135 14195 l  ps
gr
gs
27.98694 lw 1 lj 0.000 c 2035 14142 m  2135 14195 l  ps
gr
gs
27.98694 lw 1 lj 0.000 c 2135 14295 m  2135 14195 l  ps
gr
gs
36 lw 1 lj 0.363 c 2270 13298 m  2243 13300 2258 13301 2188 13301 ct 2118 13301 2048 13295 1988 13284 ct 
1927 13273 1876 13256 1841 13237 ct 1806 13217 1787 13196 1787 13174 ct 1787 13151 1806 13129 1841 13109 ct 
1876 13090 1927 13073 1987 13062 ct 2048 13051 2118 13045 2188 13045 ct 2258 13045 2328 13051 2389 13062 ct 
2432 13070 2470 13081 2502 13093 ct ps
gr
gs
0.363 c 2229 13177 m  2500 13253 l  2275 13423 l  2229 13177 l  p ef
gr
gs
36 lw 1 lj 0.363 c 3021 15061 m  3019 15061 3058 15061 3015 15061 ct 2973 15061 2931 15044 2894 15014 ct 
2857 14982 2827 14937 2805 14882 ct 2784 14827 2773 14765 2773 14702 ct 2773 14638 2784 14576 2805 14521 ct 
2827 14466 2857 14421 2894 14389 ct 2931 14358 2973 14341 3015 14341 ct 3058 14341 3100 14358 3137 14389 ct 
3174 14421 3204 14466 3226 14521 ct 3232 14537 3237 14554 3241 14570 ct ps
gr
gs
0.363 c 2923 14964 m  3203 14929 l  3064 15173 l  2923 14964 l  p ef
gr
gs
36 lw 1 lj 0.363 c 2984 13633 m  2985 13628 2986 13623 2988 13619 ct 3003 13560 3025 13511 3053 13478 ct 
3080 13444 3111 13426 3142 13426 ct 3172 13426 3203 13444 3230 13478 ct 3257 13511 3279 13560 3294 13619 ct 
3310 13677 3318 13743 3318 13811 ct 3318 13879 3310 13945 3294 14004 ct 3279 14062 3257 14111 3230 14143 ct 
3203 14177 3172 14195 3142 14195 ct 3111 14195 3109 14190 3093 14180 ct ps
gr
gs
0.363 c 3002 14259 m  2982 13979 l  3220 14130 l  3002 14259 l  p ef
gr
gs
3991 15135 m 4249 15135 l 4249 15356 l 3991 15356 l 3991 15135 l eoclip newpath
gs
0.000 c 4155 15203 m  4157 15191 4169 15146 4203 15146 ct 4205 15146 4217 15146 4227 15152 ct 
4214 15155 4204 15167 4204 15178 ct 4204 15186 4209 15195 4223 15195 ct 4233 15195 4249 15187 4249 15167 ct 
4249 15142 4220 15135 4203 15135 ct 4175 15135 4158 15161 4152 15172 ct 4140 15140 4113 15135 4099 15135 ct 
4048 15135 4020 15198 4020 15210 ct 4020 15215 4025 15215 4026 15215 ct 4030 15215 4032 15214 4033 15210 ct 
4049 15158 4082 15146 4098 15146 ct 4108 15146 4125 15150 4125 15178 ct 4125 15194 4116 15226 4098 15295 ct 
4090 15325 4073 15345 4052 15345 ct 4049 15345 4038 15345 4027 15339 ct 4039 15336 4050 15326 4050 15313 ct 
4050 15299 4039 15296 4032 15296 ct 4017 15296 4005 15308 4005 15324 ct 4005 15346 4030 15356 4051 15356 ct 
4084 15356 4101 15322 4103 15319 ct 4108 15337 4126 15356 4155 15356 ct 4206 15356 4234 15293 4234 15281 ct 
4234 15276 4229 15276 4228 15276 ct 4224 15276 4223 15278 4222 15281 ct 4205 15334 4172 15345 4156 15345 ct 
4137 15345 4130 15330 4130 15313 ct 4130 15302 4132 15292 4138 15270 ct 4155 15203 l 
4155 15203 l  p ef
gr
gr
gs
0.000 c 2248 11888 m  2250 11881 2250 11881 2250 11877 ct 2250 11868 2243 11864 2235 11864 ct 
2230 11864 2223 11867 2218 11874 ct 2217 11877 2213 11892 2211 11901 ct 2208 11913 2204 11927 2202 11940 ct 
2179 12028 l  2178 12035 2156 12070 2124 12070 ct 2099 12070 2094 12048 2094 12030 ct 
2094 12007 2102 11977 2119 11934 ct 2127 11914 2129 11908 2129 11899 ct 2129 11877 2113 11858 2088 11858 ct 
2042 11858 2024 11930 2024 11934 ct 2024 11939 2029 11939 2030 11939 ct 2034 11939 2035 11938 2037 11930 ct 
2051 11884 2070 11869 2087 11869 ct 2091 11869 2099 11869 2099 11885 ct 2099 11897 2094 11910 2091 11919 ct 
2071 11971 2062 11999 2062 12022 ct 2062 12066 2093 12080 2122 12080 ct 2141 12080 2158 12072 2172 12058 ct 
2165 12084 2159 12108 2140 12134 ct 2127 12151 2108 12165 2086 12165 ct 2079 12165 2057 12163 2049 12144 ct 
2056 12144 2063 12144 2070 12138 ct 2075 12134 2080 12128 2080 12118 ct 2080 12103 2066 12101 2061 12101 ct 
2050 12101 2034 12109 2034 12133 ct 2034 12157 2056 12176 2086 12176 ct 2136 12176 2187 12131 2201 12076 ct 
2248 11888 l  2248 11888 l  p ef
gr
gs
4101 13134 m 4329 13134 l 4329 13354 l 4101 13354 l 4101 13134 l eoclip newpath
gs
0.000 c 4166 13308 m  4192 13280 4206 13268 4224 13253 ct 4224 13252 4254 13226 4272 13210 ct 
4318 13164 4329 13141 4329 13139 ct 4329 13134 4325 13134 4324 13134 ct 4320 13134 4319 13135 4316 13139 ct 
4302 13163 4291 13171 4280 13171 ct 4268 13171 4262 13163 4255 13155 ct 4246 13144 4237 13134 4221 13134 ct 
4184 13134 4162 13179 4162 13190 ct 4162 13192 4163 13195 4168 13195 ct 4172 13195 4173 13193 4174 13190 ct 
4184 13167 4212 13167 4216 13167 ct 4226 13167 4235 13170 4246 13174 ct 4266 13181 4271 13181 4284 13181 ct 
4267 13202 4225 13236 4216 13244 ct 4172 13285 l  4139 13318 4122 13346 4122 13349 ct 
4122 13354 4127 13354 4128 13354 ct 4132 13354 4133 13353 4136 13348 ct 4147 13331 4162 13317 4177 13317 ct 
4188 13317 4193 13322 4205 13336 ct 4214 13346 4223 13354 4237 13354 ct 4285 13354 4313 13292 4313 13279 ct 
4313 13276 4311 13274 4308 13274 ct 4303 13274 4302 13277 4301 13280 ct 4289 13312 4258 13321 4242 13321 ct 
4232 13321 4224 13318 4213 13315 ct 4197 13309 4189 13307 4179 13307 ct 4178 13307 4170 13307 4166 13308 ct 
4166 13308 l  p ef
gr
gr
gs
2473 14845 m 2723 14845 l 2723 15237 l 2473 15237 l 2473 14845 l eoclip newpath
gs
0.000 c 2664 14855 m  2664 14855 2665 14850 2665 14849 ct 2665 14849 2665 14845 2660 14845 ct 
2655 14845 2655 14846 2653 14854 ct 2628 14955 l  2559 14957 2494 15015 2494 15074 ct 
2494 15115 2525 15150 2578 15153 ct 2575 15166 2572 15180 2568 15194 ct 2563 15214 2559 15231 2559 15232 ct 
2559 15237 2562 15237 2564 15237 ct 2566 15237 2567 15237 2568 15235 ct 2569 15234 2572 15224 2573 15218 ct 
2589 15153 l  2660 15150 2723 15091 2723 15033 ct 2723 14999 2700 14959 2639 14955 ct 
2664 14855 l  2664 14855 l  p
2580 15143 m  2554 15142 2523 15126 2523 15083 ct 2523 15031 2560 14970 2625 14964 ct 
2580 15143 l  2580 15143 l  p
2637 14964 m  2670 14966 2695 14986 2695 15025 ct 2695 15075 2657 15138 2592 15143 ct 
2637 14964 l  2637 14964 l  p ef
gr
gr
gs
1399 12986 m 1649 12986 l 1649 13376 l 1399 13376 l 1399 12986 l eoclip newpath
gs
0.000 c 1649 13046 m  1649 13013 1625 12986 1590 12986 ct 1565 12986 1552 12993 1537 13004 ct 
1513 13022 1489 13064 1481 13097 ct 1412 13372 l  1412 13373 1414 13376 1417 13376 ct 
1421 13376 1422 13375 1422 13374 ct 1453 13254 l  1461 13280 1480 13296 1512 13296 ct 
1544 13296 1576 13281 1596 13262 ct 1617 13242 1631 13214 1631 13183 ct 1631 13152 1615 13129 1599 13118 ct 
1624 13104 1649 13077 1649 13046 ct 1649 13046 l  p
1571 13118 m  1565 13120 1560 13121 1550 13121 ct 1544 13121 1535 13121 1531 13119 ct 
1532 13115 1547 13115 1552 13115 ct 1561 13115 1565 13115 1571 13118 ct 1571 13118 l 
p
1625 13036 m  1625 13066 1608 13097 1586 13111 ct 1574 13106 1565 13105 1552 13105 ct 
1543 13105 1519 13105 1519 13119 ct 1518 13132 1541 13130 1549 13130 ct 1565 13130 1571 13130 1584 13125 ct 
1601 13140 1603 13154 1603 13174 ct 1604 13199 1594 13230 1582 13247 ct 1565 13271 1536 13287 1511 13287 ct 
1478 13287 1461 13261 1461 13230 ct 1461 13226 1461 13220 1463 13211 ct 1491 13102 l 
1501 13065 1532 12996 1584 12996 ct 1609 12996 1625 13009 1625 13036 ct 1625 13036 l 
p ef
gr
gr
gs
0.000 c 3230 13223 m  3249 13169 3302 13168 3307 13168 ct 3381 13168 3386 13252 3386 13290 ct 
3386 13320 3383 13328 3380 13338 ct 3369 13373 3355 13429 3355 13442 ct 3355 13447 3357 13451 3361 13451 ct 
3367 13451 3371 13440 3377 13422 ct 3388 13381 3393 13353 3395 13338 ct 3396 13332 3397 13326 3399 13319 ct 
3414 13271 3445 13200 3465 13162 ct 3468 13156 3474 13145 3474 13143 ct 3474 13139 3469 13139 3468 13139 ct 
3466 13139 3464 13139 3462 13142 ct 3437 13188 3417 13236 3398 13284 ct 3398 13269 3397 13233 3378 13187 ct 
3367 13157 3347 13133 3314 13133 ct 3253 13133 3219 13207 3219 13221 ct 3219 13226 3223 13226 3228 13226 ct 
3230 13223 l  3230 13223 l  p ef
gr
gs
10.99486 lw 1 lc 1 lj 0.000 c 6586 15788 m  6593 15786 l  6601 15787 l 
6759 15837 l  6775 15839 l  6788 15834 l  6800 15824 l  6807 15808 l  6809 15788 l 
6812 15691 l  ps
gr
gs
10.99486 lw 1 lc 1 lj 0.000 c 17438 10977 m  7069 15477 l  7075 15471 l 
7078 15464 l  7079 15447 l  6587 15185 l  ps
gr
gs
10.99486 lw 1 lc 1 lj 0.000 c 7068 15476 m  7061 15479 l  7053 15478 l 
6896 15428 l  6879 15426 l  6865 15431 l  6854 15441 l  6848 15456 l  6844 15476 l 
6839 15804 l  6841 15826 l  6848 15849 l  6858 15871 l  6871 15890 l  6887 15905 l 
7051 16030 l  7063 16051 l  7067 16061 l  7067 16079 l  ps
gr
gs
10.99486 lw 1 lc 1 lj 0.000 c 7079 15447 m  17674 10851 l  ps
gr
gs
33.98414 lw 1 lc 1 lj 0.000 c 6576 15812 m  6578 15801 l  6581 15794 l 
6586 15788 l  6812 15691 l  6816 15461 l  6813 15439 l  6807 15416 l  6797 15394 l 
6783 15375 l  6767 15360 l  6603 15235 l  6591 15215 l  6588 15202 l  6587 15185 l 
17182 10589 l  17674 10851 l  17672 10867 l  17668 10875 l  17663 10880 l 
17438 10977 l  17433 11208 l  17436 11230 l  17442 11253 l  17453 11275 l 
17467 11294 l  17482 11310 l  17647 11434 l  17658 11455 l  17661 11466 l 
17663 11484 l  7067 16080 l  6576 15818 l  6576 15812 l  pc
gr
gs
29 lw 1 lj 0.000 c 5062 16461 m  6605 15783 l  ps
gr
gs
0.000 c 6542 15679 m  6812 15692 l  6639 15900 l  6542 15679 l  p ef
gr
gs
29 lw 1 lj 0.000 c 6812 15692 m  6814 14008 l  ps
gr
gs
0.000 c 6693 14024 m  6814 13782 l  6935 14024 l  6693 14024 l  p ef
gr
gs
29 lw 1 lj 0.000 c 6812 15692 m  8300 16484 l  ps
gr
gs
0.000 c 8342 16369 m  8499 16590 l  8229 16583 l  8342 16369 l  p ef
gr
gs
29 lw 1 lj 0.000 c 17441 11099 m  18984 10421 l  ps
gr
gs
0.000 c 18921 10317 m  19191 10330 l  19018 10537 l  18921 10317 l  p ef
gr
gs
29 lw 1 lj 0.000 c 17439 11099 m  17441 9415 l  ps
gr
gs
0.000 c 17320 9431 m  17441 9189 l  17562 9431 l  17320 9431 l  p ef
gr
gs
29 lw 1 lj 0.000 c 17439 11099 m  18927 11891 l  ps
gr
gs
0.000 c 18969 11776 m  19126 11997 l  18856 11990 l  18969 11776 l  p ef
gr
gs
36 lw 1 lj 0.000 c 6935 14701 m  6908 14703 6923 14704 6853 14704 ct 6783 14704 6713 14698 6653 14687 ct 
6592 14676 6541 14659 6506 14640 ct 6471 14620 6452 14598 6452 14576 ct 6452 14553 6471 14531 6506 14511 ct 
6541 14492 6592 14475 6653 14464 ct 6713 14453 6783 14447 6853 14447 ct 6923 14447 6993 14453 7054 14464 ct 
7097 14472 7135 14483 7167 14495 ct ps
gr
gs
0.000 c 6894 14579 m  7165 14656 l  6940 14826 l  6894 14579 l  p ef
gr
gs
36 lw 1 lj 0.000 c 5850 15906 m  5851 15901 5852 15896 5854 15892 ct 5869 15833 5891 15784 5918 15751 ct 
5945 15717 5976 15699 6007 15699 ct 6037 15699 6068 15717 6095 15751 ct 6122 15784 6144 15833 6159 15892 ct 
6175 15949 6183 16015 6183 16083 ct 6183 16151 6175 16217 6159 16276 ct 6144 16334 6122 16383 6095 16416 ct 
6068 16450 6037 16468 6007 16468 ct 5976 16468 5974 16463 5958 16453 ct ps
gr
gs
0.000 c 5868 16532 m  5848 16251 l  6085 16403 l  5868 16532 l  p ef
gr
gs
36 lw 1 lj 0.000 c 7886 16659 m  7884 16659 7922 16659 7880 16659 ct 7838 16659 7796 16642 7759 16611 ct 
7722 16579 7692 16534 7670 16479 ct 7649 16424 7638 16362 7638 16299 ct 7638 16235 7649 16173 7670 16118 ct 
7692 16063 7722 16018 7759 15986 ct 7796 15955 7838 15939 7880 15939 ct 7922 15939 7964 15955 8001 15986 ct 
8038 16018 8068 16063 8090 16118 ct 8096 16134 8101 16151 8105 16167 ct ps
gr
gs
0.000 c 7788 16561 m  8067 16526 l  7928 16771 l  7788 16561 l  p ef
gr
gs
36 lw 1 lj 0.000 c 17586 10159 m  17559 10161 17574 10162 17504 10162 ct 17434 10162 17364 10156 17304 10145 ct 
17243 10134 17192 10117 17157 10098 ct 17122 10078 17103 10056 17103 10034 ct 
17103 10011 17122 9989 17157 9969 ct 17192 9950 17243 9933 17304 9922 ct 17364 9911 17434 9905 17504 9905 ct 
17574 9905 17644 9911 17705 9922 ct 17748 9930 17786 9941 17818 9953 ct ps
gr
gs
0.000 c 17545 10037 m  17816 10114 l  17591 10284 l  17545 10037 l  p ef
gr
gs
36 lw 1 lj 0.000 c 18254 10535 m  18255 10530 18256 10525 18258 10521 ct 18273 10463 18295 10414 18322 10381 ct 
18349 10347 18380 10329 18411 10329 ct 18441 10329 18472 10347 18499 10381 ct 
18526 10414 18548 10463 18563 10521 ct 18579 10579 18587 10645 18587 10713 ct 
18587 10781 18579 10847 18563 10906 ct 18548 10964 18526 11013 18499 11046 ct 
18472 11080 18441 11098 18411 11098 ct 18380 11098 18378 11093 18362 11083 ct 
ps
gr
gs
0.000 c 18272 11162 m  18252 10881 l  18489 11033 l  18272 11162 l  p ef
gr
gs
36 lw 1 lj 0.000 c 18389 12012 m  18387 12012 18425 12012 18383 12012 ct 18341 12012 18299 11995 18262 11964 ct 
18225 11932 18195 11887 18173 11832 ct 18152 11777 18141 11715 18141 11652 ct 
18141 11588 18152 11526 18173 11471 ct 18195 11416 18225 11372 18262 11340 ct 
18299 11309 18341 11292 18383 11292 ct 18425 11292 18467 11309 18504 11340 ct 
18541 11372 18571 11416 18593 11471 ct 18599 11487 18604 11504 18608 11520 ct 
ps
gr
gs
0.000 c 18291 11914 m  18570 11879 l  18431 12124 l  18291 11914 l  p ef
gr
gs
0.000 c 8739 16614 m  8739 16612 8738 16609 8734 16609 ct 8729 16609 8709 16629 8701 16643 ct 
8690 16616 8671 16608 8655 16608 ct 8597 16608 8537 16681 8537 16752 ct 8537 16800 8566 16831 8602 16831 ct 
8623 16831 8642 16819 8660 16801 ct 8655 16818 8639 16884 8638 16888 ct 8634 16902 8630 16904 8602 16904 ct 
8596 16904 8591 16904 8591 16914 ct 8591 16915 8591 16920 8597 16920 ct 8613 16920 8630 16918 8646 16918 ct 
8663 16918 8681 16920 8697 16920 ct 8699 16920 8706 16920 8706 16910 ct 8706 16904 8701 16904 8693 16904 ct 
8669 16904 8669 16901 8669 16896 ct 8669 16893 8670 16890 8671 16886 ct 8739 16614 l 
8739 16614 l  p
8603 16820 m  8574 16820 8572 16782 8572 16774 ct 8572 16750 8586 16697 8594 16676 ct 
8610 16640 8635 16619 8655 16619 ct 8687 16619 8694 16659 8694 16662 ct 8694 16665 8667 16773 8666 16775 ct 
8658 16789 8631 16820 8603 16820 ct 8603 16820 l  p ef
gr
gs
0.000 c 8914 16789 m  8914 16752 8909 16724 8893 16700 ct 8883 16685 8861 16671 8834 16671 ct 
8754 16671 8754 16765 8754 16789 ct 8754 16814 8754 16905 8834 16905 ct 8914 16905 8914 16814 8914 16789 ct 
8914 16789 l  p
8834 16895 m  8818 16895 8797 16886 8790 16858 ct 8785 16838 8785 16810 8785 16785 ct 
8785 16760 8785 16734 8791 16715 ct 8798 16688 8820 16680 8834 16680 ct 8852 16680 8870 16692 8876 16712 ct 
8882 16730 8882 16755 8882 16785 ct 8882 16810 8882 16836 8878 16856 ct 8871 16888 8848 16895 8834 16895 ct 
8834 16895 l  p ef
gr
gs
6689 13317 m 7070 13317 l 7070 13629 l 6689 13629 l 6689 13317 l eoclip newpath
gs
0.000 c 6910 13322 m  6910 13320 6909 13317 6906 13317 ct 6900 13317 6881 13337 6872 13351 ct 
6861 13325 6842 13317 6827 13317 ct 6769 13317 6709 13390 6709 13461 ct 6709 13509 6738 13539 6773 13539 ct 
6794 13539 6813 13527 6831 13510 ct 6827 13527 6811 13593 6809 13598 ct 6805 13611 6801 13613 6774 13614 ct 
6767 13614 6763 13614 6763 13624 ct 6763 13624 6763 13629 6769 13629 ct 6785 13629 6802 13628 6818 13628 ct 
6835 13628 6852 13629 6868 13629 ct 6871 13629 6877 13629 6877 13619 ct 6877 13614 6872 13614 6864 13614 ct 
6841 13614 6841 13610 6841 13606 ct 6841 13603 6842 13600 6843 13595 ct 6910 13322 l 
6910 13322 l  p
6775 13528 m  6745 13528 6743 13491 6743 13482 ct 6743 13459 6758 13405 6766 13385 ct 
6781 13348 6807 13328 6827 13328 ct 6859 13328 6865 13368 6865 13371 ct 6865 13374 6838 13481 6837 13483 ct 
6830 13497 6802 13528 6775 13528 ct 6775 13528 l  p ef
gr
gs
0.000 c 7023 13389 m  7023 13380 7022 13379 7012 13379 ct 6990 13401 6959 13401 6945 13401 ct 
6945 13414 l  6953 13414 6976 13414 6995 13404 ct 6995 13579 l  6995 13591 6995 13595 6961 13595 ct 
6948 13595 l  6948 13607 l  6954 13607 6996 13606 7009 13606 ct 7019 13606 7062 13607 7070 13607 ct 
7070 13595 l  7057 13595 l  7023 13595 7023 13591 7023 13579 ct 7023 13389 l 
7023 13389 l  p ef
gr
gr
gs
4651 16470 m 5051 16470 l 5051 16786 l 4651 16786 l 4651 16470 l eoclip newpath
gs
0.000 c 4877 16475 m  4877 16473 4876 16470 4872 16470 ct 4867 16470 4847 16490 4838 16505 ct 
4827 16478 4808 16470 4792 16470 ct 4733 16470 4671 16544 4671 16616 ct 4671 16664 4701 16695 4737 16695 ct 
4759 16695 4778 16683 4796 16665 ct 4792 16683 4775 16750 4774 16754 ct 4770 16768 4766 16770 4738 16771 ct 
4731 16771 4726 16771 4726 16781 ct 4726 16781 4726 16786 4733 16786 ct 4749 16786 4766 16785 4783 16785 ct 
4800 16785 4818 16786 4834 16786 ct 4837 16786 4843 16786 4843 16776 ct 4843 16771 4838 16771 4830 16771 ct 
4806 16771 4806 16767 4806 16763 ct 4806 16759 4807 16756 4808 16752 ct 4877 16475 l 
4877 16475 l  p
4739 16684 m  4709 16684 4707 16646 4707 16637 ct 4707 16614 4721 16559 4730 16539 ct 
4745 16502 4771 16481 4792 16481 ct 4824 16481 4831 16521 4831 16525 ct 4831 16528 4804 16636 4802 16638 ct 
4795 16652 4767 16684 4739 16684 ct 4739 16684 l  p ef
gr
gs
0.000 c 5051 16701 m  5039 16701 l  5038 16708 5035 16729 5030 16732 ct 5027 16735 5000 16735 4995 16735 ct 
4931 16735 l  4968 16702 4980 16692 5001 16676 ct 5027 16656 5051 16634 5051 16601 ct 
5051 16559 5014 16533 4969 16533 ct 4926 16533 4896 16563 4896 16595 ct 4896 16613 4911 16615 4915 16615 ct 
4923 16615 4933 16609 4933 16596 ct 4933 16590 4931 16578 4913 16578 ct 4924 16553 4947 16546 4964 16546 ct 
4999 16546 5017 16573 5017 16601 ct 5017 16631 4995 16655 4984 16668 ct 4900 16751 l 
4896 16754 4896 16754 4896 16764 ct 5040 16764 l  5051 16701 l  5051 16701 l 
p ef
gr
gr
gs
0.000 c 7346 16414 m  7346 16412 7344 16409 7341 16409 ct 7335 16409 7316 16429 7307 16443 ct 
7296 16416 7277 16408 7262 16408 ct 7204 16408 7143 16481 7143 16552 ct 7143 16600 7172 16631 7208 16631 ct 
7229 16631 7248 16619 7266 16601 ct 7262 16618 7245 16685 7244 16689 ct 7240 16703 7236 16705 7208 16705 ct 
7202 16705 7197 16705 7197 16715 ct 7197 16716 7197 16721 7204 16721 ct 7219 16721 7236 16719 7253 16719 ct 
7269 16719 7287 16721 7303 16721 ct 7306 16721 7312 16721 7312 16711 ct 7312 16705 7307 16705 7299 16705 ct 
7276 16705 7276 16702 7276 16697 ct 7276 16694 7277 16691 7278 16687 ct 7346 16414 l 
7346 16414 l  p
7209 16620 m  7180 16620 7178 16582 7178 16574 ct 7178 16550 7192 16497 7201 16476 ct 
7216 16440 7241 16419 7262 16419 ct 7293 16419 7300 16459 7300 16462 ct 7300 16465 7273 16573 7272 16575 ct 
7264 16589 7237 16620 7209 16620 ct 7209 16620 l  p ef
gr
gs
0.000 c 7437 16584 m  7463 16584 7483 16603 7483 16640 ct 7483 16682 7458 16695 7438 16695 ct 
7424 16695 7394 16691 7380 16671 ct 7396 16670 7400 16659 7400 16652 ct 7400 16641 7391 16633 7381 16633 ct 
7371 16633 7361 16638 7361 16653 ct 7361 16685 7397 16706 7439 16706 ct 7487 16706 7520 16674 7520 16640 ct 
7520 16613 7498 16586 7460 16578 ct 7496 16565 7509 16539 7509 16518 ct 7509 16491 7478 16471 7439 16471 ct 
7401 16471 7372 16489 7372 16517 ct 7372 16529 7380 16535 7390 16535 ct 7401 16535 7407 16527 7407 16518 ct 
7407 16508 7401 16500 7390 16500 ct 7402 16485 7426 16481 7438 16481 ct 7454 16481 7475 16488 7475 16518 ct 
7475 16533 7471 16549 7462 16559 ct 7450 16572 7441 16573 7424 16574 ct 7415 16575 7414 16575 7413 16575 ct 
7412 16575 7409 16576 7409 16579 ct 7409 16584 7412 16584 7418 16584 ct 7437 16584 l 
7437 16584 l  p ef
gr
gs
0.000 c 5637 15458 m  5637 15456 5636 15453 5633 15453 ct 5627 15453 5607 15473 5599 15487 ct 
5588 15460 5569 15452 5553 15452 ct 5496 15452 5435 15525 5435 15596 ct 5435 15644 5464 15675 5500 15675 ct 
5521 15675 5540 15663 5558 15645 ct 5553 15662 5537 15729 5536 15733 ct 5532 15747 5528 15749 5500 15749 ct 
5494 15749 5489 15749 5489 15759 ct 5489 15760 5489 15765 5496 15765 ct 5511 15765 5528 15763 5545 15763 ct 
5561 15763 5579 15765 5595 15765 ct 5598 15765 5604 15765 5604 15755 ct 5604 15749 5599 15749 5591 15749 ct 
5568 15749 5568 15746 5568 15741 ct 5568 15738 5569 15735 5570 15731 ct 5637 15458 l 
5637 15458 l  p
5501 15664 m  5472 15664 5470 15626 5470 15618 ct 5470 15594 5484 15541 5493 15520 ct 
5508 15484 5533 15463 5553 15463 ct 5585 15463 5592 15503 5592 15506 ct 5592 15509 5565 15617 5564 15619 ct 
5556 15633 5529 15664 5501 15664 ct 5501 15664 l  p ef
gr
gs
0.000 c 5817 15687 m  5817 15674 l  5778 15674 l  5778 15521 l  5778 15514 5778 15511 5771 15511 ct 
5767 15511 5765 15511 5762 15516 ct 5648 15674 l  5648 15687 l  5749 15687 l 
5749 15715 l  5749 15726 5749 15731 5721 15731 ct 5712 15731 l  5712 15743 l 
5729 15742 5751 15742 5764 15742 ct 5776 15742 5798 15742 5815 15743 ct 5815 15731 l 
5806 15731 l  5778 15731 5778 15726 5778 15715 ct 5778 15687 l  5817 15687 l 
5817 15687 l  p
5752 15549 m  5752 15674 l  5661 15674 l  5752 15549 l  5752 15549 l  p ef
gr
gs
5920 14214 m 6352 14214 l 6352 14555 l 5920 14555 l 5920 14214 l eoclip newpath
gs
0.000 c 6164 14220 m  6164 14218 6162 14215 6159 14215 ct 6153 14215 6131 14236 6122 14252 ct 
6110 14223 6089 14214 6072 14214 ct 6008 14214 5942 14293 5942 14371 ct 5942 14424 5973 14457 6013 14457 ct 
6036 14457 6057 14444 6077 14425 ct 6072 14443 6054 14516 6052 14521 ct 6048 14536 6044 14538 6013 14538 ct 
6006 14538 6001 14538 6001 14549 ct 6001 14550 6001 14555 6008 14555 ct 6025 14555 6044 14553 6062 14553 ct 
6080 14553 6100 14555 6118 14555 ct 6120 14555 6127 14555 6127 14544 ct 6127 14538 6122 14538 6113 14538 ct 
6087 14538 6087 14535 6087 14530 ct 6087 14526 6088 14523 6090 14518 ct 6164 14220 l 
6164 14220 l  p
6015 14445 m  5982 14445 5980 14404 5980 14395 ct 5980 14369 5996 14311 6005 14288 ct 
6022 14248 6050 14226 6072 14226 ct 6107 14226 6114 14269 6114 14273 ct 6114 14276 6085 14394 6083 14396 ct 
6075 14411 6045 14445 6015 14445 ct 6015 14445 l  p ef
gr
gs
0.000 c 6220 14322 m  6239 14327 6250 14327 6256 14327 ct 6306 14327 6336 14293 6336 14287 ct 
6336 14283 6333 14282 6331 14282 ct 6330 14282 6330 14282 6328 14283 ct 6319 14287 6299 14294 6271 14294 ct 
6261 14294 6240 14293 6216 14284 ct 6212 14282 6211 14282 6211 14282 ct 6206 14282 6206 14286 6206 14292 ct 
6206 14403 l  6206 14409 6206 14414 6212 14414 ct 6216 14414 6216 14413 6220 14409 ct 
6236 14388 6259 14385 6272 14385 ct 6295 14385 6305 14403 6307 14406 ct 6314 14418 6316 14433 6316 14454 ct 
6316 14466 6316 14488 6305 14504 ct 6295 14518 6279 14527 6261 14527 ct 6236 14527 6211 14513 6201 14489 ct 
6216 14490 6223 14480 6223 14470 ct 6223 14454 6209 14451 6204 14451 ct 6203 14451 6185 14451 6185 14471 ct 
6185 14505 6216 14539 6261 14539 ct 6310 14539 6352 14503 6352 14456 ct 6352 14414 6319 14375 6273 14375 ct 
6256 14375 6236 14379 6220 14393 ct 6220 14322 l  6220 14322 l  p ef
gr
gr
gs
0.000 c 19506 11973 m  19506 11971 19504 11968 19501 11968 ct 19495 11968 19476 11988 19467 12002 ct 
19456 11975 19437 11967 19422 11967 ct 19364 11967 19303 12040 19303 12111 ct 
19303 12159 19332 12190 19368 12190 ct 19389 12190 19408 12178 19426 12160 ct 
19422 12177 19405 12244 19404 12248 ct 19400 12262 19396 12264 19368 12264 ct 
19362 12264 19357 12264 19357 12274 ct 19357 12275 19357 12280 19364 12280 ct 
19379 12280 19396 12278 19413 12278 ct 19429 12278 19447 12280 19463 12280 ct 
19466 12280 19472 12280 19472 12270 ct 19472 12264 19467 12264 19459 12264 ct 
19436 12264 19436 12261 19436 12256 ct 19436 12253 19437 12250 19438 12246 ct 
19506 11973 l  19506 11973 l  p
19369 12179 m  19340 12179 19338 12141 19338 12133 ct 19338 12109 19352 12056 19361 12035 ct 
19376 11999 19401 11978 19422 11978 ct 19453 11978 19460 12018 19460 12021 ct 
19460 12024 19433 12132 19432 12134 ct 19424 12148 19397 12179 19369 12179 ct 
19369 12179 l  p ef
gr
gs
0.000 c 19554 12146 m  19554 12117 19557 12092 19570 12071 ct 19582 12053 19600 12040 19622 12040 ct 
19632 12040 19646 12043 19653 12052 ct 19644 12053 19637 12058 19637 12068 ct 
19637 12077 19643 12084 19653 12084 ct 19664 12084 19670 12078 19670 12068 ct 
19670 12048 19655 12030 19621 12030 ct 19572 12030 19521 12075 19521 12149 ct 
19521 12238 19563 12265 19601 12265 ct 19643 12265 19680 12233 19680 12188 ct 
19680 12144 19645 12112 19605 12112 ct 19577 12112 19562 12130 19554 12146 ct 
19554 12146 l  p
19601 12254 m  19584 12254 19571 12244 19563 12229 ct 19558 12218 19555 12201 19555 12181 ct 
19555 12147 19575 12122 19603 12122 ct 19619 12122 19629 12128 19638 12140 ct 
19646 12154 19647 12168 19647 12188 ct 19647 12207 19647 12222 19637 12235 ct 
19629 12247 19618 12254 19601 12254 ct 19601 12254 l  p ef
gr
gs
19191 10109 m 19623 10109 l 19623 10441 l 19191 10441 l 19191 10109 l eoclip newpath
gs
0.000 c 19427 10115 m  19427 10113 19425 10110 19422 10110 ct 19416 10110 19395 10130 19386 10146 ct 
19375 10117 19354 10109 19338 10109 ct 19276 10109 19212 10186 19212 10262 ct 
19212 10313 19243 10345 19281 10345 ct 19303 10345 19324 10333 19342 10314 ct 
19338 10332 19320 10403 19319 10408 ct 19315 10422 19310 10424 19281 10425 ct 
19274 10425 19269 10425 19269 10435 ct 19269 10436 19269 10441 19276 10441 ct 
19293 10441 19311 10439 19328 10439 ct 19346 10439 19365 10441 19382 10441 ct 
19385 10441 19391 10441 19391 10431 ct 19391 10425 19386 10425 19378 10425 ct 
19353 10425 19353 10421 19353 10416 ct 19353 10413 19354 10410 19355 10405 ct 
19427 10115 l  19427 10115 l  p
19282 10334 m  19251 10334 19249 10294 19249 10285 ct 19249 10260 19264 10203 19273 10181 ct 
19289 10142 19316 10120 19338 10120 ct 19372 10120 19379 10163 19379 10166 ct 
19379 10170 19350 10284 19349 10286 ct 19341 10301 19312 10334 19282 10334 ct 
19282 10334 l  p ef
gr
gs
0.000 c 19619 10197 m  19623 10193 19623 10192 19623 10183 ct 19527 10183 l 
19513 10183 19509 10182 19496 10181 ct 19477 10180 19476 10177 19475 10171 ct 
19462 10171 l  19450 10249 l  19462 10249 l  19463 10244 19466 10220 19472 10216 ct 
19475 10214 19505 10214 19510 10214 ct 19590 10214 l  19578 10229 19559 10252 19552 10262 ct 
19504 10325 19500 10383 19500 10405 ct 19500 10409 19500 10425 19517 10425 ct 
19534 10425 19534 10409 19534 10404 ct 19534 10390 l  19534 10319 19549 10286 19565 10266 ct 
19619 10197 l  19619 10197 l  p ef
gr
gr
gs
0.000 c 17505 8763 m  17505 8761 17503 8758 17500 8758 ct 17495 8758 17475 8777 17467 8792 ct 
17456 8765 17437 8757 17421 8757 ct 17363 8757 17303 8830 17303 8900 ct 17303 8948 17332 8978 17368 8978 ct 
17389 8978 17408 8967 17426 8949 ct 17421 8966 17405 9032 17404 9036 ct 17400 9050 17396 9052 17368 9053 ct 
17362 9053 17357 9053 17357 9062 ct 17357 9063 17357 9068 17363 9068 ct 17379 9068 17396 9066 17412 9066 ct 
17429 9066 17447 9068 17463 9068 ct 17465 9068 17472 9068 17472 9058 ct 17472 9053 17467 9053 17459 9053 ct 
17435 9053 17435 9049 17435 9045 ct 17435 9041 17436 9038 17437 9034 ct 17505 8763 l 
17505 8763 l  p
17369 8968 m  17340 8968 17338 8930 17338 8922 ct 17338 8898 17352 8845 17360 8825 ct 
17376 8789 17401 8768 17421 8768 ct 17453 8768 17460 8808 17460 8811 ct 17460 8814 17433 8921 17431 8923 ct 
17424 8936 17397 8968 17369 8968 ct 17369 8968 l  p ef
gr
gs
0.000 c 17624 8923 m  17651 8910 17668 8894 17668 8870 ct 17668 8837 17633 8819 17600 8819 ct 
17562 8819 17531 8844 17531 8876 ct 17531 8892 17539 8904 17545 8911 ct 17551 8918 17554 8919 17574 8931 ct 
17555 8940 17521 8958 17521 8994 ct 17521 9032 17560 9053 17599 9053 ct 17643 9053 17679 9025 17679 8988 ct 
17679 8966 17665 8947 17645 8935 ct 17641 8932 17629 8926 17624 8923 ct 17624 8923 l 
p
17568 8890 m  17559 8885 17550 8876 17550 8863 ct 17550 8842 17575 8829 17599 8829 ct 
17626 8829 17650 8846 17650 8870 ct 17650 8901 17614 8916 17613 8916 ct 17613 8916 17612 8916 17610 8914 ct 
17568 8890 l  17568 8890 l  p
17585 8938 m  17632 8965 l  17641 8970 17658 8980 17658 9000 ct 17658 9026 17629 9042 17600 9042 ct 
17568 9042 17541 9022 17541 8994 ct 17541 8969 17560 8949 17585 8938 ct 17585 8938 l 
p ef
gr
gs
0.000 c 18168 12036 m  18168 12034 18166 12031 18163 12031 ct 18157 12031 18138 12051 18129 12065 ct 
18118 12038 18099 12030 18084 12030 ct 18026 12030 17965 12103 17965 12174 ct 
17965 12222 17994 12253 18030 12253 ct 18051 12253 18070 12241 18088 12223 ct 
18084 12240 18067 12306 18066 12310 ct 18062 12324 18058 12326 18030 12326 ct 
18024 12326 18019 12326 18019 12336 ct 18019 12337 18019 12342 18026 12342 ct 
18041 12342 18058 12340 18075 12340 ct 18091 12340 18109 12342 18125 12342 ct 
18128 12342 18134 12342 18134 12332 ct 18134 12326 18129 12326 18121 12326 ct 
18098 12326 18098 12323 18098 12318 ct 18098 12315 18099 12312 18100 12308 ct 
18168 12036 l  18168 12036 l  p
18031 12242 m  18002 12242 18000 12204 18000 12196 ct 18000 12172 18014 12119 18023 12098 ct 
18038 12062 18063 12041 18084 12041 ct 18115 12041 18122 12081 18122 12084 ct 
18122 12087 18095 12195 18094 12197 ct 18086 12211 18059 12242 18031 12242 ct 
18031 12242 l  p ef
gr
gs
0.000 c 18309 12219 m  18309 12303 18266 12316 18246 12316 ct 18238 12316 18220 12315 18211 12304 ct 
18225 12303 18226 12292 18226 12289 ct 18226 12281 18220 12273 18209 12273 ct 
18199 12273 18193 12280 18193 12290 ct 18193 12312 18213 12327 18246 12327 ct 
18295 12327 18342 12281 18342 12208 ct 18342 12123 18304 12093 18263 12093 ct 
18252 12093 18228 12095 18209 12114 ct 18197 12125 18183 12139 18183 12169 ct 
18183 12213 18218 12245 18258 12245 ct 18286 12245 18301 12227 18309 12212 ct 
18309 12219 l  18309 12219 l  p
18260 12236 m  18247 12236 18234 12231 18224 12215 ct 18216 12203 18216 12188 18216 12169 ct 
18216 12150 18216 12136 18226 12122 ct 18235 12110 18246 12103 18264 12103 ct 
18281 12103 18292 12114 18297 12123 ct 18306 12137 18307 12161 18307 12173 ct 
18307 12218 18282 12236 18260 12236 ct 18260 12236 l  p ef
gr
gs
0.000 c 16608 9698 m  16608 9696 16607 9693 16603 9693 ct 16598 9693 16578 9713 16570 9727 ct 
16559 9700 16540 9692 16524 9692 ct 16466 9692 16406 9765 16406 9836 ct 16406 9884 16435 9915 16471 9915 ct 
16492 9915 16511 9903 16529 9885 ct 16524 9902 16508 9969 16507 9973 ct 16503 9987 16499 9989 16471 9989 ct 
16465 9989 16460 9989 16460 9999 ct 16460 10000 16460 10005 16466 10005 ct 16482 10005 16499 10003 16516 10003 ct 
16532 10003 16550 10005 16566 10005 ct 16569 10005 16575 10005 16575 9995 ct 
16575 9989 16570 9989 16562 9989 ct 16539 9989 16539 9986 16539 9981 ct 16539 9978 16540 9975 16541 9971 ct 
16608 9698 l  16608 9698 l  p
16472 9904 m  16443 9904 16441 9866 16441 9858 ct 16441 9834 16455 9781 16464 9760 ct 
16479 9724 16504 9703 16524 9703 ct 16556 9703 16563 9743 16563 9746 ct 16563 9749 16536 9857 16535 9859 ct 
16527 9873 16500 9904 16472 9904 ct 16472 9904 l  p ef
gr
gs
0.000 c 16721 9764 m  16721 9755 16720 9755 16710 9755 ct 16688 9777 16657 9777 16643 9777 ct 
16643 9789 l  16651 9789 16674 9789 16693 9780 ct 16693 9955 l  16693 9966 16693 9971 16658 9971 ct 
16645 9971 l  16645 9983 l  16652 9983 16694 9982 16707 9982 ct 16717 9982 16761 9983 16768 9983 ct 
16768 9971 l  16755 9971 l  16721 9971 16721 9966 16721 9955 ct 16721 9764 l 
16721 9764 l  p ef
gr
gs
0.000 c 16979 9873 m  16979 9836 16974 9808 16958 9784 ct 16948 9769 16926 9755 16899 9755 ct 
16819 9755 16819 9849 16819 9873 ct 16819 9898 16819 9990 16899 9990 ct 16979 9990 16979 9898 16979 9873 ct 
16979 9873 l  p
16899 9980 m  16883 9980 16862 9971 16855 9943 ct 16850 9922 16850 9894 16850 9869 ct 
16850 9844 16850 9818 16856 9799 ct 16863 9772 16885 9764 16899 9764 ct 16917 9764 16935 9776 16941 9796 ct 
16947 9814 16947 9839 16947 9869 ct 16947 9894 16947 9920 16943 9941 ct 16936 9973 16913 9980 16899 9980 ct 
16899 9980 l  p ef
gr
gs
0.000 c 18952 10774 m  18952 10772 18950 10769 18947 10769 ct 18941 10769 18922 10789 18913 10803 ct 
18902 10776 18883 10768 18868 10768 ct 18810 10768 18749 10841 18749 10912 ct 
18749 10960 18778 10991 18814 10991 ct 18835 10991 18854 10979 18872 10961 ct 
18868 10978 18851 11045 18850 11049 ct 18846 11063 18842 11065 18815 11065 ct 
18808 11065 18803 11065 18803 11075 ct 18803 11076 18803 11081 18810 11081 ct 
18825 11081 18843 11079 18859 11079 ct 18875 11079 18893 11081 18909 11081 ct 
18912 11081 18918 11081 18918 11071 ct 18918 11065 18913 11065 18905 11065 ct 
18882 11065 18882 11062 18882 11057 ct 18882 11054 18883 11051 18884 11047 ct 
18952 10774 l  18952 10774 l  p
18816 10980 m  18786 10980 18784 10942 18784 10934 ct 18784 10910 18798 10857 18807 10836 ct 
18822 10800 18847 10779 18868 10779 ct 18900 10779 18906 10819 18906 10822 ct 
18906 10825 18879 10933 18878 10935 ct 18871 10949 18843 10980 18816 10980 ct 
18816 10980 l  p ef
gr
gs
0.000 c 19064 10840 m  19064 10831 19063 10831 19054 10831 ct 19032 10853 19000 10853 18986 10853 ct 
18986 10865 l  18995 10865 19017 10865 19036 10856 ct 19036 11031 l  19036 11042 19036 11047 19002 11047 ct 
18989 11047 l  18989 11059 l  18995 11059 19037 11058 19050 11058 ct 19061 11058 19104 11059 19112 11059 ct 
19112 11047 l  19099 11047 l  19064 11047 19064 11042 19064 11031 ct 19064 10840 l 
19064 10840 l  p ef
gr
gs
0.000 c 19260 10840 m  19260 10831 19259 10831 19250 10831 ct 19228 10853 19196 10853 19182 10853 ct 
19182 10865 l  19191 10865 19213 10865 19232 10856 ct 19232 11031 l  19232 11042 19232 11047 19198 11047 ct 
19185 11047 l  19185 11059 l  19191 11059 19233 11058 19246 11058 ct 19257 11058 19300 11059 19308 11059 ct 
19308 11047 l  19294 11047 l  19260 11047 19260 11042 19260 11031 ct 19260 10840 l 
19260 10840 l  p ef
gr
0 8200 t 
pom
count op_count sub {pop} repeat countdictstack dict_count sub {end} repeat b4_inc_state restore
%%PageTrailer
%%Trailer
%%EOF
