<?xml version="1.0" encoding="UTF-8" standalone="no"?>
<svg xmlns="http://www.w3.org/2000/svg" xmlns:xlink="http://www.w3.org/1999/xlink" width="297.000mm" height="210.000mm" viewBox="0.000000 0.000000 297.000000 210.000000" stroke-linejoin="round" stroke-linecap="round" fill="none" fill-rule="evenodd"><desc>Composer Export</desc><script type="text/ecmascript"><![CDATA[
if(typeof(top) != "undefined")
{
	top.ShowPaper = ShowPaper;
}
function ShowHotSpot(evt,hotspotid)
{
	var svgDocument = evt.target.ownerDocument;
	var strId = "hotspot."+hotspotid;
	var hotspot = svgDocument.getElementById(strId);
	if(hotspot)
		hotspot.setAttribute("opacity",".5");
}
function HideHotSpot(evt,hotspotid)
{
	var svgDocument = evt.target.ownerDocument;
	var strId = "hotspot."+hotspotid;
	var hotspot = svgDocument.getElementById(strId);
	if(hotspot)
		hotspot.setAttribute("opacity","0");

	var toolTip = svgDocument.getElementById('ToolTip');
	if(toolTip)
		toolTip.setAttribute("visibility","hidden");
}
function ShowToolTip(evt,hotspotid,strTooltip)
{
	if(strTooltip=="")
	return;

	// change text
	var svgDocument = evt.target.ownerDocument;
	var tiptext = svgDocument.getElementById('ToolTipText');
	if( !tiptext )
	return;
	tiptext.firstChild.nodeValue = " " + strTooltip + "  " ;

	// show tooltip before, else some refresh issue

	var toolTip = svgDocument.getElementById('ToolTip');
	if(!toolTip)
	return;

	toolTip.setAttribute("visibility","visible");
	toolTip.setAttribute("opacity",".95");

	// move tooltip
	// get viewbox

	var root = svgDocument.documentElement;
	var vbox = (root.getAttribute("viewBox")).split(' ');
	var x0 = parseFloat(vbox[0]);
	var y0 = parseFloat(vbox[1]);
	var vboxW = parseFloat(vbox[2]);
	var vboxH = parseFloat(vbox[3]);

	// get default width of svg

	var strW = root.getAttribute("width");
	var svgW = parseFloat(strW);
	if(strW.indexOf('mm') != -1)
	svgW *= 3.779;

	var strH = root.getAttribute("height");
	var svgH = parseFloat(strH);
	if(strH.indexOf('mm') != -1)
	svgH *= 3.779;  	// 96 dpi  -> 96/25.4 = 3.779

	// update the viewbox / width / height if svg is embedded in html with zoom fit all
	var realx0 = x0;
	var realy0 = y0;
	var realvboxW = vboxW;
	var realvboxH = vboxH;
	var realsvgW = svgW;
	var realsvgH = svgH;

	if ((typeof(top) == "undefined") || (typeof(top.svgctl1) != "undefined")) // embedded in html
	{
		// get window size in pxl

		svgW = window.innerWidth;
		svgH = window.innerHeight;

		// calculate real viewbox

		realsvgW = svgW;
		realsvgH = svgH;
		if((svgW / svgH) > (vboxW / vboxH))
		{
			realvboxW = (vboxH * svgW) / svgH;
			realvboxH = vboxH;
			realx0 = x0 - (realvboxW - vboxW)/2 ;
		}
		else
		{
			realvboxH = (vboxW * svgH) / svgW;
			realvboxW = vboxW;
			realy0 = y0 - (realvboxH - vboxH)/2 ;
		}
	}

	// get user zoom/pan

	var newScale = root.currentScale;
	var translation = root.currentTranslate;

	// transform pxl to user unit

	var xPos = (((evt.clientX+10- translation.x)/newScale) * realvboxW)/realsvgW  + realx0 ;
	var yPos = (((evt.clientY+5- translation.y)/newScale) * realvboxH)/ realsvgH  + realy0 ;
	var scaleForWidth = ( (1 / newScale) * realvboxH) / realsvgH;

	// move tooltip

	toolTip.setAttribute("transform", "translate(" + xPos + "," + yPos + ")" );

	// resize tooltip

	var fontsize = 12;
	tiptext.setAttribute("font-size",fontsize*scaleForWidth);
	tiptext.setAttribute("y", fontsize*scaleForWidth);
	var tipBG = svgDocument.getElementById('ToolTipBG');
	var outline = tiptext.getBBox();
	if(tipBG)
	{
		tipBG.setAttribute("stroke-width", 1*scaleForWidth);
		tipBG.setAttribute("width", Number(outline.width) );
		tipBG.setAttribute("height", Number(outline.height) + fontsize*.5*scaleForWidth );
	}
	var ToolTipShadow = svgDocument.getElementById('ToolTipShadow');
	if(ToolTipShadow)
	{
		ToolTipShadow.setAttribute("width", Number(outline.width) );
		ToolTipShadow.setAttribute("height", Number(outline.height) + fontsize*.5*scaleForWidth );
		ToolTipShadow.setAttribute("x", 3*scaleForWidth);
		ToolTipShadow.setAttribute("y", 3*scaleForWidth);
	}
}
function ShowPaper()
{
  var svgDocument = getDocument();
  var paper = svgDocument.getElementById("paperID");
  if(paper)
  {
    paper.setAttribute("transform","scale(1)");
    paper.setAttribute("opacity","1");
    paper.setAttribute("visibility","visible");
  }
  var svg = svgDocument.getRootElement();
  if(svg)
  {
    svg.setAttribute("width","307.000mm");
    svg.setAttribute("height","220.000mm");
    svg.setAttribute("viewBox","-5.000000 -5.000000 307.000000 220.000000");
  }
}
]]></script><defs/><g><path style="fill:#000000;fill-opacity:0.098;fill-rule:evenodd" d="M99.05,48.89L99.33,49.74L94.75,49.66L91.46,49.16L89.18,48.39L88.70,48.12L88.35,47.35L89.61,46.36L91.89,45.61L95.18,45.10L96.78,45.10zM147.62,107.30L147.61,108.42L147.03,109.85L145.58,111.44L143.24,112.64L141.96,112.88L138.68,112.96L101.79,50.92L101.73,50.41L107.58,49.66L110.97,48.51L111.70,47.96L111.89,47.62L112.20,47.58zM87.70,50.41L87.70,50.75L87.43,50.68L87.43,50.13zM88.46,51.67L88.46,52.01L88.19,51.95L88.19,51.40zM89.22,52.94L89.22,53.28L88.95,53.21L88.95,52.66zM92.51,58.50L92.51,58.84L92.23,58.77L92.23,58.22zM93.27,59.76L93.27,60.10L92.99,60.04L92.99,59.49zM94.03,61.03L94.03,61.37L93.75,61.30L93.75,60.75zM97.31,66.59L97.31,66.93L97.04,66.87L97.04,66.32zM98.07,67.86L98.07,68.20L97.80,68.13L97.80,67.58zM135.22,120.21L136.40,120.21L142.47,119.20L144.86,119.18L145.13,119.44L145.11,119.79L143.57,121.31L140.96,122.25L134.97,122.24L130.40,121.24L125.60,119.46L124.50,118.75L124.49,118.47L125.00,118.17L130.84,117.94L133.75,117.68zM75.28,126.28L76.31,127.27L77.81,129.07L79.08,131.59L80.58,135.40L82.11,141.21L82.37,143.83L72.24,144.83L67.36,145.08L67.17,144.52L67.44,138.00L68.19,133.18L69.13,130.08L70.22,127.88L71.91,126.03L72.66,125.77L74.28,125.77zM84.30,153.61L85.06,153.34L230.23,139.94L231.84,139.93L231.83,147.10L231.06,152.41L230.05,156.21L228.46,159.42L227.42,160.66L225.76,161.52L81.52,174.84L78.95,174.83L80.60,173.41L82.03,170.54L83.13,167.34L84.13,161.01L84.39,154.62z"/><g id="Actor_.0"><g style="stroke:#000000;stroke-width:0.176"><path d="M67.27,143.87L67.37,147.36L67.64,150.72L68.06,154.04L68.64,157.27L69.35,160.33L70.19,163.17L71.13,165.72L72.17,167.94L73.26,169.77L74.41,171.19L75.57,172.16L76.73,172.66L77.86,172.68L78.95,172.22L79.41,171.80L79.96,171.30L80.88,169.93L81.69,168.13L82.38,165.91L82.91,163.43L83.30,160.62L83.53,157.57L83.59,154.36L83.49,151.04L83.22,147.68L82.80,144.36L82.22,141.13L81.51,138.07L80.67,135.23L79.73,132.68L78.69,130.46L77.60,128.63L76.45,127.21L75.29,126.24L74.13,125.74L73.00,125.72L71.91,126.17L70.90,127.10L69.98,128.47L69.17,130.27L68.49,132.45L67.95,134.97L67.56,137.78L67.33,140.83L67.27,143.87"/><path d="M73.43,123.06L74.66,123.36L75.89,124.14L77.12,125.39L78.32,127.08L79.47,129.19L80.53,131.67L81.51,134.47L82.19,136.91L82.37,137.56L83.10,140.84L83.69,144.30L84.12,147.84L84.39,151.41L84.50,154.93L84.45,157.79L84.44,158.35L84.21,161.60L83.81,164.62L83.26,167.35L82.56,169.74L81.73,171.75L80.79,173.34L79.74,174.48L78.61,175.15L77.43,175.34"/><path d="M110.32,119.66L124.91,118.31L124.65,118.40L124.55,118.51L124.57,118.65L124.68,118.80L124.90,118.98L125.63,119.41L126.72,119.92L128.10,120.46L128.90,120.75L130.57,120.76L132.83,120.68L133.71,120.62L135.37,120.44L137.67,120.10L141.42,119.45L142.74,119.27L143.94,119.20L144.48,119.22L144.99,119.27L145.46,119.38"/><path d="M125.47,118.23L124.91,118.31"/><path d="M128.90,120.75L130.58,121.29L131.47,121.54L133.53,122.03L134.47,122.20L135.42,122.35L137.19,122.53L138.03,122.56L138.85,122.56L139.76,122.50L140.61,122.39L141.43,122.23L142.09,122.05L142.72,121.82L143.28,121.57L143.79,121.28L144.27,120.94L144.68,120.57L145.00,120.22L145.24,119.86L145.42,119.50L145.54,119.15L145.59,118.76L145.57,118.40L145.47,118.06L145.30,117.76L145.07,117.50L144.78,117.28L144.42,117.09L144.01,116.94L143.54,116.84L143.03,116.77L142.48,116.74L141.88,116.74L140.60,116.83"/></g><g style="stroke:#000000;stroke-width:0.529"><path d="M67.21,154.31L66.74,150.56L66.46,146.99L66.36,143.47L66.42,140.05L66.56,138.07L66.65,136.80L67.05,133.78L67.60,131.05L68.30,128.66L69.13,126.65L70.07,125.05L71.12,123.91L72.25,123.25L73.43,123.06L110.33,119.66L125.47,118.23L126.38,118.18L129.74,118.10L132.13,117.95L134.56,117.69L139.20,117.01L140.60,116.83L221.17,109.43L222.40,109.73L223.63,110.51L224.86,111.76L226.06,113.45L227.21,115.56L228.27,118.03L229.25,120.84L230.11,123.92L230.84,127.21L231.43,130.66L231.86,134.20L232.14,137.77L232.24,141.30L232.18,144.72L231.95,147.97L231.55,150.99L231.00,153.72L230.30,156.11L229.47,158.12L228.53,159.71L227.48,160.85L226.35,161.52L225.17,161.71L77.43,175.34L76.20,175.04L74.97,174.26L73.74,173.01L72.54,171.31L71.39,169.21L70.33,166.73L69.35,163.93L68.49,160.85L67.76,157.55L67.21,154.31"/></g><g style="stroke:#000000;stroke-width:0.176;stroke-dasharray:2.2 2.2"><path d="M73.00,125.72L126.46,120.78L126.11,120.86L126.01,120.96L126.01,121.07L124.56,118.64"/><path d="M72.25,123.25L81.22,122.40L80.05,122.51"/><path d="M77.86,172.68L225.60,159.05L226.69,158.59L227.70,157.67L228.62,156.29L229.43,154.50L230.11,152.32L230.65,149.80L231.04,146.98L231.27,143.94L231.33,140.73L231.23,137.41L230.96,134.05L230.54,130.72L229.99,127.62L229.25,124.43L228.41,121.60L227.47,119.04L226.60,117.18L226.43,116.83L225.34,114.99L224.19,113.58L223.03,112.61L221.87,112.11L220.74,112.09L217.22,112.41L216.87,113.01L216.04,115.02L215.34,117.42L214.79,120.15L214.42,122.98L214.16,126.41L214.10,129.83L214.21,133.36L214.48,136.93L214.91,140.47L215.50,143.92L215.75,145.03L216.23,147.22L217.09,150.29L218.07,153.10L219.13,155.58L220.28,157.68L221.48,159.37L222.71,160.62L223.94,161.40L225.17,161.71"/><path d="M81.22,122.40L83.53,122.19L82.37,122.30"/><path d="M83.53,122.19L84.69,122.08L83.53,122.19"/><path d="M84.69,122.08L88.17,121.75L87.01,121.86"/><path d="M88.17,121.75L99.77,120.67L98.61,120.78"/><path d="M99.77,120.67L100.93,120.56L99.77,120.67"/><path d="M100.93,120.56L110.33,119.66"/><path d="M102.09,120.45L121.82,118.60"/><path d="M126.01,121.07L126.12,121.22L126.34,121.40L126.65,121.60L127.57,122.08L128.83,122.64L130.36,123.23L131.20,123.52L132.98,124.08L133.91,124.33L135.07,124.62L136.02,124.81L137.87,125.10L138.77,125.18L139.61,125.22L140.44,125.22L141.34,125.17L142.20,125.06L143.01,124.89L143.67,124.70L144.41,124.40L144.84,124.19L145.34,123.88L145.80,123.52L146.20,123.13L146.50,122.76L146.74,122.38L146.91,122.00L147.01,121.63L147.06,121.22L147.02,120.85L146.92,120.50L145.30,117.76"/><path d="M126.46,120.78L127.39,120.73L128.90,120.75"/><path d="M221.17,109.43L219.99,109.61L218.86,110.28L217.81,111.42L217.22,112.41L142.74,119.27"/><path d="M145.46,119.38L145.86,119.51L146.22,119.70L146.51,119.92L146.74,120.19"/><path d="M220.74,112.09L219.65,112.54L218.64,113.47L217.72,114.84L216.91,116.63L216.23,118.81L215.69,121.34L215.30,124.15L215.07,127.19L215.01,130.41L215.11,133.73L215.38,137.08L215.80,140.41L216.38,143.64L217.09,146.70L217.93,149.54L218.87,152.09L219.37,153.15L219.91,154.31L221.00,156.14L222.15,157.55L223.31,158.52L224.47,159.02L225.60,159.05"/></g></g><g id="Actor_.1"><g style="stroke:#000000;stroke-width:0.176"><path d="M111.91,46.81L112.11,47.31L111.97,47.82L111.52,48.28L110.80,48.71L109.71,49.15L108.48,49.51L107.04,49.82L105.45,50.08L103.53,50.30L101.77,50.43L99.94,50.50L98.05,50.51L96.15,50.46L94.31,50.34L92.52,50.15L90.85,49.90L89.36,49.58L88.08,49.21L87.06,48.78L86.34,48.32L85.94,47.82"/><path d="M89.15,48.34L88.65,47.92L88.50,47.48L88.66,47.06L89.13,46.65L89.87,46.27L90.91,45.91L92.08,45.62L93.41,45.38L94.84,45.19L96.65,45.04L98.33,44.98L100.05,44.97L101.75,45.04L102.76,45.11L104.33,45.28L105.77,45.51L107.14,45.83L108.22,46.20L108.97,46.61L109.39,47.03L109.48,47.47L109.26,47.89L108.74,48.30L107.95,48.67L107.35,48.88L106.19,49.19L104.90,49.44L103.49,49.64L102.62,49.73L100.79,49.85L99.10,49.90L97.38,49.88L95.56,49.78L93.97,49.63L92.50,49.41L91.08,49.10L89.94,48.73L89.15,48.34"/></g><g style="stroke:#000000;stroke-width:0.529"><path d="M87.01,49.62L85.94,47.82L85.90,47.32L86.22,46.80L86.81,46.36L87.67,45.94L88.88,45.53L90.22,45.19L91.74,44.91L93.40,44.68L94.81,44.54L96.58,44.42L98.43,44.36L100.32,44.36L102.21,44.43L104.16,44.57L105.92,44.78L107.55,45.05L108.99,45.38L110.21,45.77L111.15,46.20L111.36,46.33L111.91,46.81L147.58,106.87L147.73,107.27L147.80,107.70L147.80,108.16L147.74,108.60L147.62,109.05L147.43,109.50L147.18,109.96L146.83,110.44L146.40,110.92L145.94,111.32L145.42,111.71L144.83,112.06L144.19,112.36L143.49,112.63L142.74,112.85L141.82,113.04L140.87,113.16L139.97,113.22L139.07,113.22L138.09,113.18L137.11,113.09L136.08,112.96L135.04,112.79L133.96,112.57L132.90,112.32L131.83,112.04L130.78,111.74L129.72,111.41L128.70,111.06L127.71,110.71L126.76,110.35L125.87,110.00L124.28,109.31L122.99,108.69L122.48,108.42L122.07,108.17L121.76,107.96L121.56,107.78L87.01,49.62"/></g><g style="stroke:#000000;stroke-width:0.176;stroke-dasharray:2.2 2.2"><path d="M122.10,107.36L122.20,107.36L121.88,107.38L124.38,107.18L124.17,107.25L124.05,107.34L124.03,107.45L124.10,107.60L88.65,47.92"/><path d="M109.39,47.03L144.86,106.74L144.99,107.04L145.02,107.15L145.06,107.37L145.07,107.71L145.00,108.07L144.87,108.43L144.68,108.80L144.42,109.16L144.09,109.51L143.60,109.91L143.14,110.22L142.61,110.50L142.05,110.74L141.44,110.95L140.78,111.13L140.09,111.26L139.24,111.36L138.31,111.42L137.37,111.42L136.47,111.38L135.57,111.30L134.63,111.18L133.70,111.03L132.69,110.82L131.68,110.59L130.77,110.35L129.88,110.10L129.04,109.83L128.23,109.56L127.40,109.26L126.63,108.96L125.97,108.68L125.39,108.41L124.93,108.18L124.56,107.96L124.28,107.77L124.10,107.60"/><path d="M121.88,107.38L121.61,107.43L121.48,107.51L121.47,107.62"/><path d="M122.79,107.31L125.03,107.09L125.97,107.04L129.23,106.96L130.69,106.88L132.34,106.75L133.25,106.65L134.84,106.44L137.95,105.98L139.54,105.76L140.21,105.68L141.09,105.61L140.86,105.63L141.47,105.61L141.80,105.61L142.70,105.46L141.09,105.61"/><path d="M144.86,106.74L144.65,106.47L144.38,106.23L144.05,106.02L143.65,105.86L143.19,105.74L142.67,105.65L142.10,105.61L141.80,105.61L140.56,105.84L137.26,106.56L135.57,106.90L133.86,107.18L133.00,107.30L132.15,107.39L130.72,107.51L129.83,107.56L128.97,107.58L128.10,107.59L126.47,107.55L123.05,107.37L122.20,107.36"/><path d="M124.38,107.18L124.83,107.11"/><path d="M140.86,105.63L140.39,105.67"/><path d="M142.93,105.44L143.13,105.42L142.70,105.46"/><path d="M143.13,105.42L143.39,105.39L144.03,105.36L144.62,105.36L145.18,105.41L145.69,105.50L146.15,105.64L146.77,105.95L147.10,106.21L147.37,106.52L147.58,106.87"/></g></g><g/><g id="paperID" visibility="hidden" opacity="0.00" transform="scale(0.000100)"><path style="stroke:#000000;stroke-width:0.500;fill:#e6e6e6;fill-rule:evenodd" d="M-2000.00,-2000.00L2297.00,-2000.00L2297.00,2210.00L-2000.00,2210.00zM0.00,0.00L297.00,0.00L297.00,210.00L0.00,210.00z"/><path style="fill:#000000;fill-opacity:0.118" d="M3.00,210.00L297.00,210.00L297.00,3.00L300.00,3.00L300.00,213.00L3.00,213.00z"/></g><g id="ToolTip" visibility="hidden" opacity="0" transform="translate(0,0)"><rect id="ToolTipShadow" opacity="0.20" fill="black" stroke="none" x="0" y="0" width="30" height="8"/><rect id="ToolTipBG" fill="#ffffe1" stroke="black" x="0" y="0" width="30" height="8"/><text xml:space="preserve" id="ToolTipText" fill="black" x="0" y="0" width="30" height="8">tooltip</text></g></g></svg>
